# Blender v2.79 (sub 0) OBJ File: ''
# www.blender.org
mtllib ChuckBall.mtl
o Ball_0
v -0.348754 0.103523 -0.000006
v -0.348754 0.099995 -0.026801
v -0.356493 0.000006 -0.000006
v -0.321898 0.193185 -0.051765
v -0.321898 0.199997 -0.000006
v -0.321898 0.173202 -0.099995
v -0.348754 0.089656 -0.051765
v -0.356493 0.000006 -0.000006
v -0.321898 0.141427 -0.141427
v -0.348754 0.073201 -0.073201
v -0.356493 0.000006 -0.000006
v -0.321898 0.099995 -0.173202
v -0.348754 0.051765 -0.089656
v -0.356493 0.000006 -0.000006
v -0.321898 0.051765 -0.193185
v -0.348754 0.026801 -0.099995
v -0.356493 0.000006 -0.000006
v -0.321898 0.000006 -0.199997
v -0.348754 0.000006 -0.103523
v -0.356493 0.000006 -0.000006
v -0.321898 -0.051765 -0.193185
v -0.348754 -0.026801 -0.099995
v -0.356493 0.000006 -0.000006
v -0.321898 -0.099995 -0.173202
v -0.348754 -0.051765 -0.089656
v -0.356493 0.000006 -0.000006
v -0.321898 -0.141427 -0.141427
v -0.348754 -0.073201 -0.073201
v -0.356493 0.000006 -0.000006
v -0.321898 -0.173202 -0.099995
v -0.348754 -0.089656 -0.051765
v -0.356493 0.000006 -0.000006
v -0.321898 -0.193185 -0.051765
v -0.348754 -0.099995 -0.026801
v -0.356493 0.000006 -0.000006
v -0.321898 -0.199997 -0.000006
v -0.348754 -0.103523 -0.000006
v -0.356493 0.000006 -0.000006
v -0.321898 -0.193185 0.051765
v -0.348754 -0.099995 0.026789
v -0.356493 0.000006 -0.000006
v -0.321898 -0.173202 0.099995
v -0.348754 -0.089656 0.051765
v -0.356493 0.000006 -0.000006
v -0.321898 -0.141427 0.141427
v -0.348754 -0.073201 0.073201
v -0.356493 0.000006 -0.000006
v -0.321898 -0.099995 0.173202
v -0.348754 -0.051765 0.089656
v -0.356493 0.000006 -0.000006
v -0.321898 -0.051765 0.193185
v -0.348754 -0.026801 0.099995
v -0.356493 0.000006 -0.000006
v -0.321898 -0.000006 0.199997
v -0.348754 -0.000006 0.103523
v -0.356493 0.000006 -0.000006
v -0.321898 0.051765 0.193185
v -0.348754 0.026789 0.099995
v -0.356493 0.000006 -0.000006
v -0.321898 0.099995 0.173202
v -0.348754 0.051765 0.089656
v -0.356493 0.000006 -0.000006
v -0.321898 0.141427 0.141427
v -0.348754 0.073201 0.073201
v -0.356493 0.000006 -0.000006
v -0.321898 0.173202 0.099995
v -0.348754 0.089656 0.051765
v -0.356493 0.000006 -0.000006
v -0.321898 0.193185 0.051765
v -0.348754 0.099995 0.026801
v -0.356493 0.000006 -0.000006
v -0.321898 0.199997 -0.000006
v -0.348754 0.103523 -0.000006
v -0.356493 0.000006 -0.000006
v -0.271507 0.199997 0.199997
v -0.271507 0.141427 0.244944
v -0.271507 0.244944 0.141427
v -0.271507 0.273204 0.073201
v -0.271507 0.282847 -0.000006
v -0.197055 0.244944 0.244944
v -0.197055 0.173202 0.299999
v -0.271507 0.073201 0.273204
v -0.271519 -0.000006 0.282847
v -0.271507 -0.073201 0.273204
v -0.271507 -0.141427 0.244944
v -0.271507 -0.199997 0.199997
v -0.271507 -0.244944 0.141427
v -0.271507 -0.273204 0.073201
v -0.271507 -0.282847 -0.000006
v -0.271507 -0.273204 -0.073201
v -0.271507 -0.244944 -0.141427
v -0.271507 -0.199997 -0.199997
v -0.271507 -0.141427 -0.244944
v -0.271507 -0.073201 -0.273204
v -0.271507 0.000006 -0.282847
v -0.271507 0.073201 -0.273204
v -0.271507 0.141427 -0.244944
v -0.271507 0.199997 -0.199997
v -0.271507 0.244944 -0.141427
v -0.271507 0.273204 -0.073201
v -0.271507 0.282847 -0.000006
v -0.197055 0.334606 -0.089656
v -0.197055 0.346410 -0.000006
v -0.197055 0.299999 -0.173202
v -0.197055 0.244944 -0.244944
v -0.197055 0.173202 -0.299998
v -0.197055 0.089656 -0.334606
v -0.103401 0.373205 -0.099995
v -0.103401 0.386364 -0.000006
v -0.103401 0.334606 -0.193185
v -0.103401 0.273204 -0.273204
v -0.103401 0.193185 -0.334606
v -0.103401 0.099995 -0.373205
v -0.103401 0.000006 -0.386364
v -0.197055 0.000006 -0.346410
v -0.197055 -0.089656 -0.334606
v -0.197055 -0.173202 -0.299999
v -0.197055 -0.244944 -0.244944
v -0.197055 -0.299998 -0.173202
v -0.197055 -0.334606 -0.089656
v -0.197055 -0.346410 -0.000006
v -0.197055 -0.334606 0.089656
v -0.197055 -0.299999 0.173202
v -0.197055 -0.244944 0.244944
v -0.197055 -0.173202 0.299998
v -0.197055 -0.089656 0.334606
v -0.197055 -0.000006 0.346410
v -0.197055 0.089656 0.334606
v -0.103401 -0.334606 0.193185
v -0.103401 -0.373205 0.099995
v -0.103401 -0.273204 0.273204
v -0.103401 -0.193185 0.334606
v -0.103401 -0.099995 0.373205
v -0.103401 -0.000006 0.386364
v -0.103401 0.099995 0.373205
v -0.103401 0.193185 0.334606
v -0.103401 0.273204 0.273204
v -0.103401 0.334606 0.193185
v -0.197055 0.299998 0.173202
v -0.197055 0.334606 0.089656
v -0.197055 0.346410 -0.000006
v -0.103401 0.373205 0.099995
v -0.103401 0.386364 -0.000006
v -0.000006 -0.000006 0.400000
v -0.000006 0.103523 0.386365
v -0.000006 0.282847 0.282847
v -0.000006 0.346410 0.199997
v -0.000006 0.386364 0.103523
v -0.000006 0.400000 -0.000006
v 0.103401 0.099995 0.373205
v 0.103401 -0.000006 0.386364
v -0.000006 -0.103523 0.386364
v -0.000006 -0.199997 0.346410
v -0.000006 -0.282847 0.282847
v -0.000006 -0.346410 0.199997
v -0.000006 -0.386365 0.103523
v -0.103401 -0.386364 -0.000006
v -0.103401 -0.373205 -0.099995
v -0.103401 -0.334606 -0.193185
v -0.103401 -0.273204 -0.273204
v -0.103401 -0.193185 -0.334606
v -0.103401 -0.099995 -0.373205
v 0.000006 -0.103523 -0.386365
v 0.000006 0.000006 -0.400000
v 0.000006 0.103523 -0.386364
v 0.000006 0.199997 -0.346410
v 0.000006 0.282847 -0.282847
v -0.000006 0.346410 -0.199997
v -0.000006 0.386365 -0.103523
v -0.000006 0.400000 -0.000006
v 0.103401 0.373205 -0.099995
v 0.103401 0.386364 0.000006
v 0.103401 0.334606 -0.193185
v 0.103401 0.273204 -0.273204
v 0.103401 0.193185 -0.334606
v 0.103401 0.099995 -0.373205
v 0.197055 0.334606 -0.089656
v 0.197055 0.346410 0.000006
v 0.197055 0.299999 -0.173202
v 0.197055 0.244944 -0.244944
v 0.197055 0.173202 -0.299998
v 0.197055 0.089656 -0.334606
v 0.197055 0.000006 -0.346410
v 0.103401 0.000006 -0.386364
v 0.103401 -0.099995 -0.373205
v 0.103401 -0.193185 -0.334606
v 0.000006 -0.199997 -0.346410
v 0.000006 -0.282847 -0.282847
v -0.000006 -0.346410 -0.199997
v -0.000006 -0.386364 -0.103523
v -0.000006 -0.400000 -0.000006
v 0.103401 -0.273204 -0.273204
v 0.103401 -0.334606 -0.193185
v 0.103401 -0.373205 -0.099995
v 0.103401 -0.386364 -0.000006
v 0.103401 -0.373205 0.099995
v 0.103401 -0.334606 0.193185
v 0.103401 -0.273204 0.273204
v 0.103401 -0.193185 0.334606
v 0.103401 -0.099995 0.373205
v 0.197055 -0.299998 -0.173202
v 0.197055 -0.244944 -0.244944
v 0.197055 -0.173202 -0.299999
v 0.197055 -0.089656 -0.334606
v 0.197055 -0.173202 0.299998
v 0.197055 -0.089656 0.334606
v 0.197055 -0.000006 0.346410
v 0.197055 0.089656 0.334606
v 0.197055 0.173202 0.299999
v 0.103401 0.193185 0.334606
v -0.000006 0.199997 0.346410
v 0.103401 0.273204 0.273204
v 0.103401 0.334606 0.193185
v 0.103401 0.373205 0.099995
v 0.103401 0.386364 0.000006
v 0.197055 0.244944 0.244944
v 0.197055 0.299998 0.173202
v 0.197055 0.334606 0.089656
v 0.197055 0.346410 0.000006
v 0.271507 0.244944 0.141427
v 0.271507 0.199997 0.199997
v 0.271507 0.141427 0.244944
v 0.271507 0.073201 0.273204
v 0.271507 -0.000006 0.282847
v 0.271507 -0.073201 0.273204
v 0.271507 -0.141427 0.244944
v 0.197055 -0.244944 0.244944
v 0.197055 -0.299999 0.173202
v 0.197055 -0.334606 0.089656
v 0.197055 -0.346410 -0.000006
v 0.197055 -0.334606 -0.089656
v 0.271507 -0.273204 -0.073201
v 0.271507 -0.244944 -0.141427
v 0.271507 -0.199997 -0.199997
v 0.271507 -0.141427 -0.244944
v 0.271507 -0.073201 -0.273204
v 0.271507 0.000006 -0.282847
v 0.271507 0.073201 -0.273204
v 0.271507 0.141427 -0.244944
v 0.271507 0.199997 -0.199997
v 0.271507 0.244944 -0.141427
v 0.271507 0.273204 -0.073201
v 0.271507 0.282847 0.000006
v 0.321898 0.193185 -0.051765
v 0.321898 0.199997 0.000006
v 0.321898 0.173202 -0.099995
v 0.321898 0.141427 -0.141427
v 0.321898 0.099995 -0.173202
v 0.321898 0.051765 -0.193185
v 0.348754 0.099995 -0.026801
v 0.348754 0.103523 0.000006
v 0.348754 0.089656 -0.051765
v 0.348754 0.073201 -0.073201
v 0.348754 0.051765 -0.089656
v 0.348754 0.026801 -0.099995
v 0.348754 0.000006 -0.103523
v 0.321898 0.000006 -0.199997
v 0.321898 -0.051765 -0.193185
v 0.321898 -0.099995 -0.173202
v 0.321898 -0.141427 -0.141427
v 0.321898 -0.173202 -0.099995
v 0.321898 -0.193185 -0.051765
v 0.321898 -0.199997 -0.000006
v 0.271507 -0.282847 -0.000006
v 0.271507 -0.273204 0.073201
v 0.271507 -0.244944 0.141427
v 0.271507 -0.199997 0.199997
v 0.321898 -0.193185 0.051765
v 0.321898 -0.173202 0.099995
v 0.321898 -0.141427 0.141427
v 0.321898 -0.099995 0.173202
v 0.321898 -0.051765 0.193185
v 0.321898 -0.000006 0.199997
v 0.321898 0.051765 0.193185
v 0.321898 0.099995 0.173202
v 0.321898 0.141427 0.141427
v 0.321898 0.173202 0.099995
v 0.321898 0.193185 0.051765
v 0.271507 0.273204 0.073201
v 0.271507 0.282847 0.000006
v 0.321898 0.199997 0.000006
v 0.348754 0.051765 0.089656
v 0.348754 0.026801 0.099995
v 0.348754 0.073201 0.073201
v 0.348754 0.089656 0.051765
v 0.348754 0.099995 0.026801
v 0.348754 0.103523 0.000006
v 0.356494 0.000006 0.000006
v 0.356494 0.000006 0.000006
v 0.356494 0.000006 0.000006
v 0.356494 0.000006 0.000006
v 0.356494 0.000006 0.000006
v 0.348754 -0.000006 0.103523
v 0.348754 -0.026801 0.099995
v 0.348754 -0.051765 0.089656
v 0.348754 -0.073201 0.073201
v 0.348754 -0.089656 0.051765
v 0.348754 -0.099995 0.026801
v 0.348754 -0.103523 0.000006
v 0.348754 -0.099995 -0.026801
v 0.348754 -0.089656 -0.051765
v 0.348754 -0.073201 -0.073201
v 0.348754 -0.051765 -0.089656
v 0.348754 -0.026801 -0.099995
v 0.356494 0.000006 0.000006
v 0.356494 0.000006 0.000006
v 0.356494 0.000006 0.000006
v 0.356494 0.000006 0.000006
v 0.356494 0.000006 0.000006
v 0.356494 0.000006 0.000006
v 0.356494 0.000006 0.000006
v 0.356494 0.000006 0.000006
v 0.356494 0.000006 0.000006
v 0.356494 0.000006 0.000006
v 0.356494 0.000006 0.000006
v 0.356494 0.000006 0.000006
v 0.356494 0.000006 0.000006
v 0.356494 0.000006 0.000006
v 0.356494 0.000006 0.000006
v 0.356494 0.000006 0.000006
v 0.356494 0.000006 0.000006
v 0.356494 0.000006 0.000006
v 0.356494 0.000006 0.000006
vt 0.844967 0.956620
vt 0.850792 0.956620
vt 0.844967 0.997398
vt 0.850792 0.914872
vt 0.844967 0.914872
vt 0.857589 0.914872
vt 0.857589 0.956620
vt 0.850792 0.997398
vt 0.863414 0.914872
vt 0.863414 0.956620
vt 0.857589 0.997398
vt 0.870210 0.914872
vt 0.870210 0.956620
vt 0.863414 0.997398
vt 0.877007 0.914872
vt 0.877007 0.956620
vt 0.870210 0.997398
vt 0.882832 0.914872
vt 0.882832 0.956620
vt 0.877007 0.997398
vt 0.889628 0.914872
vt 0.889628 0.956620
vt 0.882832 0.997398
vt 0.895454 0.914872
vt 0.895454 0.956620
vt 0.889628 0.997398
vt 0.902250 0.914872
vt 0.902250 0.956620
vt 0.895454 0.997398
vt 0.909046 0.914872
vt 0.909046 0.956620
vt 0.902250 0.997398
vt 0.914872 0.914872
vt 0.914872 0.956620
vt 0.909046 0.997398
vt 0.921668 0.914872
vt 0.921668 0.956620
vt 0.914872 0.997398
vt 0.927493 0.914872
vt 0.927493 0.956620
vt 0.921668 0.997398
vt 0.934290 0.914872
vt 0.934290 0.956620
vt 0.927493 0.997398
vt 0.941086 0.914872
vt 0.941086 0.956620
vt 0.934290 0.997398
vt 0.946911 0.914872
vt 0.946911 0.956620
vt 0.941086 0.997398
vt 0.953708 0.914872
vt 0.953708 0.956620
vt 0.946911 0.997398
vt 0.959533 0.914872
vt 0.959533 0.956620
vt 0.953708 0.997398
vt 0.966329 0.914872
vt 0.966329 0.956620
vt 0.959533 0.997398
vt 0.973126 0.914872
vt 0.973126 0.956620
vt 0.966329 0.997398
vt 0.978951 0.914872
vt 0.978951 0.956620
vt 0.973126 0.997398
vt 0.985747 0.914872
vt 0.985747 0.956620
vt 0.978951 0.997398
vt 0.991573 0.914872
vt 0.991573 0.956620
vt 0.985747 0.997398
vt 0.998369 0.914872
vt 0.998369 0.956620
vt 0.991573 0.997398
vt 0.978951 0.874094
vt 0.973126 0.874094
vt 0.985747 0.874094
vt 0.991573 0.874094
vt 0.998369 0.874094
vt 0.978951 0.832345
vt 0.973126 0.832345
vt 0.966329 0.874094
vt 0.959533 0.874094
vt 0.953708 0.874094
vt 0.946911 0.874094
vt 0.941086 0.874094
vt 0.934290 0.874094
vt 0.927493 0.874094
vt 0.921668 0.874094
vt 0.914872 0.874094
vt 0.909046 0.874094
vt 0.902250 0.874094
vt 0.895454 0.874094
vt 0.889628 0.874094
vt 0.882832 0.874094
vt 0.877007 0.874094
vt 0.870210 0.874094
vt 0.863414 0.874094
vt 0.857589 0.874094
vt 0.850792 0.874094
vt 0.844967 0.874094
vt 0.850792 0.832345
vt 0.844967 0.832345
vt 0.857589 0.832345
vt 0.863414 0.832345
vt 0.870210 0.832345
vt 0.877007 0.832345
vt 0.850792 0.791567
vt 0.844967 0.791567
vt 0.857589 0.791567
vt 0.863414 0.791567
vt 0.870210 0.791567
vt 0.877007 0.791567
vt 0.882832 0.791567
vt 0.882832 0.832345
vt 0.889628 0.832345
vt 0.895454 0.832345
vt 0.902250 0.832345
vt 0.909046 0.832345
vt 0.914872 0.832345
vt 0.921668 0.832345
vt 0.927493 0.832345
vt 0.934290 0.832345
vt 0.941086 0.832345
vt 0.946911 0.832345
vt 0.953708 0.832345
vt 0.959533 0.832345
vt 0.966329 0.832345
vt 0.934290 0.791567
vt 0.927493 0.791567
vt 0.941086 0.791567
vt 0.946911 0.791567
vt 0.953708 0.791567
vt 0.959533 0.791567
vt 0.966329 0.791567
vt 0.973126 0.791567
vt 0.978951 0.791567
vt 0.985747 0.791567
vt 0.985747 0.832345
vt 0.991573 0.832345
vt 0.998369 0.832345
vt 0.991573 0.791567
vt 0.998369 0.791567
vt 0.959533 0.749819
vt 0.966329 0.749819
vt 0.978951 0.749819
vt 0.985747 0.749819
vt 0.991573 0.749819
vt 0.998369 0.749819
vt 0.966329 0.709041
vt 0.959533 0.709041
vt 0.953708 0.749819
vt 0.946911 0.749819
vt 0.941086 0.749819
vt 0.934290 0.749819
vt 0.927493 0.749819
vt 0.921668 0.791567
vt 0.914872 0.791567
vt 0.909046 0.791567
vt 0.902250 0.791567
vt 0.895454 0.791567
vt 0.889628 0.791567
vt 0.889628 0.749819
vt 0.882832 0.749819
vt 0.877007 0.749819
vt 0.870210 0.749819
vt 0.863414 0.749819
vt 0.857589 0.749819
vt 0.850792 0.749819
vt 0.844967 0.749819
vt 0.850792 0.709041
vt 0.844967 0.709041
vt 0.857589 0.709041
vt 0.863414 0.709041
vt 0.870210 0.709041
vt 0.877007 0.709041
vt 0.850792 0.667292
vt 0.844967 0.667292
vt 0.857589 0.667292
vt 0.863414 0.667292
vt 0.870210 0.667292
vt 0.877007 0.667292
vt 0.882832 0.667292
vt 0.882832 0.709041
vt 0.889628 0.709041
vt 0.895454 0.709041
vt 0.895454 0.749819
vt 0.902250 0.749819
vt 0.909046 0.749819
vt 0.914872 0.749819
vt 0.921668 0.749819
vt 0.902250 0.709041
vt 0.909046 0.709041
vt 0.914872 0.709041
vt 0.921668 0.709041
vt 0.927493 0.709041
vt 0.934290 0.709041
vt 0.941086 0.709041
vt 0.946911 0.709041
vt 0.953708 0.709041
vt 0.909046 0.667292
vt 0.902250 0.667292
vt 0.895454 0.667292
vt 0.889628 0.667292
vt 0.946911 0.667292
vt 0.953708 0.667292
vt 0.959533 0.667292
vt 0.966329 0.667292
vt 0.973126 0.667292
vt 0.973126 0.709041
vt 0.973126 0.749819
vt 0.978951 0.709041
vt 0.985747 0.709041
vt 0.991573 0.709041
vt 0.998369 0.709041
vt 0.978951 0.667292
vt 0.985747 0.667292
vt 0.991573 0.667292
vt 0.998369 0.667292
vt 0.985747 0.626514
vt 0.978951 0.626514
vt 0.973126 0.626514
vt 0.966329 0.626514
vt 0.959533 0.626514
vt 0.953708 0.626514
vt 0.946911 0.626514
vt 0.941086 0.667292
vt 0.934290 0.667292
vt 0.927493 0.667292
vt 0.921668 0.667292
vt 0.914872 0.667292
vt 0.914872 0.626514
vt 0.909046 0.626514
vt 0.902250 0.626514
vt 0.895454 0.626514
vt 0.889628 0.626514
vt 0.882832 0.626514
vt 0.877007 0.626514
vt 0.870210 0.626514
vt 0.863414 0.626514
vt 0.857589 0.626514
vt 0.850792 0.626514
vt 0.844967 0.626514
vt 0.850792 0.584766
vt 0.844967 0.584766
vt 0.857589 0.584766
vt 0.863414 0.584766
vt 0.870210 0.584766
vt 0.877007 0.584766
vt 0.850792 0.543988
vt 0.844967 0.543988
vt 0.857589 0.543988
vt 0.863414 0.543988
vt 0.870210 0.543988
vt 0.877007 0.543988
vt 0.882832 0.543988
vt 0.882832 0.584766
vt 0.889628 0.584766
vt 0.895454 0.584766
vt 0.902250 0.584766
vt 0.909046 0.584766
vt 0.914872 0.584766
vt 0.921668 0.584766
vt 0.921668 0.626514
vt 0.927493 0.626514
vt 0.934290 0.626514
vt 0.941086 0.626514
vt 0.927493 0.584766
vt 0.934290 0.584766
vt 0.941086 0.584766
vt 0.946911 0.584766
vt 0.953708 0.584766
vt 0.959533 0.584766
vt 0.966329 0.584766
vt 0.973126 0.584766
vt 0.978951 0.584766
vt 0.985747 0.584766
vt 0.991573 0.584766
vt 0.991573 0.626514
vt 0.998369 0.626514
vt 0.998369 0.584766
vt 0.973126 0.543988
vt 0.966329 0.543988
vt 0.978951 0.543988
vt 0.985747 0.543988
vt 0.991573 0.543988
vt 0.998369 0.543988
vt 0.966329 0.502239
vt 0.973126 0.502239
vt 0.978951 0.502239
vt 0.985747 0.502239
vt 0.991573 0.502239
vt 0.959533 0.543988
vt 0.953708 0.543988
vt 0.946911 0.543988
vt 0.941086 0.543988
vt 0.934290 0.543988
vt 0.927493 0.543988
vt 0.921668 0.543988
vt 0.914872 0.543988
vt 0.909046 0.543988
vt 0.902250 0.543988
vt 0.895454 0.543988
vt 0.889628 0.543988
vt 0.882832 0.502239
vt 0.889628 0.502239
vt 0.895454 0.502239
vt 0.902250 0.502239
vt 0.909046 0.502239
vt 0.877007 0.502239
vt 0.870210 0.502239
vt 0.863414 0.502239
vt 0.857589 0.502239
vt 0.850792 0.502239
vt 0.844967 0.502239
vt 0.914872 0.502239
vt 0.921668 0.502239
vt 0.927493 0.502239
vt 0.934290 0.502239
vt 0.941086 0.502239
vt 0.946911 0.502239
vt 0.953708 0.502239
vt 0.959533 0.502239
vn -0.9843 0.1765 -0.0004
vn -1.0000 0.0039 -0.0004
vn -0.9137 0.3961 -0.0908
vn -0.9137 0.4039 -0.0444
vn -0.9137 0.3491 -0.2081
vn -0.9843 0.1530 -0.0881
vn -1.0000 0.0039 -0.0003
vn -0.9137 0.2863 -0.2884
vn -0.9843 0.1294 -0.1200
vn -0.9137 0.2000 -0.3537
vn -0.9843 0.0902 -0.1517
vn -0.9137 0.1058 -0.3924
vn -0.9843 0.0432 -0.1711
vn -0.9137 0.0039 -0.4063
vn -0.9843 0.0039 -0.1764
vn -0.9137 -0.1058 -0.3924
vn -0.9843 -0.0432 -0.1711
vn -0.9137 -0.2000 -0.3537
vn -0.9843 -0.0902 -0.1517
vn -0.9137 -0.2863 -0.2884
vn -0.9843 -0.1294 -0.1200
vn -0.9137 -0.3490 -0.2081
vn -0.9843 -0.1530 -0.0881
vn -0.9137 -0.3961 -0.0908
vn -0.9843 -0.1765 -0.0003
vn -0.9137 -0.4039 -0.0444
vn -0.9137 -0.3961 0.0908
vn -0.9843 -0.1765 -0.0004
vn -0.9137 -0.3490 0.2081
vn -0.9843 -0.1530 0.0881
vn -0.9137 -0.2864 0.2884
vn -0.9843 -0.1294 0.1200
vn -0.9137 -0.2000 0.3537
vn -0.9843 -0.0902 0.1517
vn -0.9137 -0.1058 0.3924
vn -0.9843 -0.0432 0.1711
vn -0.9137 0.0039 0.4063
vn -0.9843 0.0039 0.1764
vn -0.9137 0.1058 0.3924
vn -0.9843 0.0432 0.1711
vn -0.9137 0.2000 0.3537
vn -0.9843 0.0902 0.1517
vn -0.9137 0.2864 0.2884
vn -0.9843 0.1294 0.1200
vn -0.9137 0.3490 0.2081
vn -0.9843 0.1530 0.0880
vn -0.9137 0.3961 0.0908
vn -0.9137 0.4039 -0.0443
vn -0.7569 0.4667 0.4576
vn -0.7569 0.3255 0.5668
vn -0.7569 0.5686 0.3222
vn -0.7568 0.6314 0.1690
vn -0.7562 0.6543 -0.0000
vn -0.5216 0.6000 0.6066
vn -0.5215 0.4273 0.7385
vn -0.7569 0.1686 0.6315
vn -0.7569 0.0039 0.6536
vn -0.7569 -0.1686 0.6314
vn -0.7568 -0.3255 0.5668
vn -0.7568 -0.4666 0.4576
vn -0.7569 -0.5686 0.3222
vn -0.7568 -0.6314 0.1689
vn -0.7562 -0.6544 -0.0000
vn -0.7569 -0.6313 -0.1689
vn -0.7569 -0.5686 -0.3222
vn -0.7569 -0.4667 -0.4576
vn -0.7569 -0.3255 -0.5668
vn -0.7569 -0.1686 -0.6315
vn -0.7569 0.0039 -0.6536
vn -0.7568 0.1686 -0.6315
vn -0.7569 0.3255 -0.5668
vn -0.7568 0.4666 -0.4576
vn -0.7569 0.5686 -0.3222
vn -0.7568 0.6314 -0.1689
vn -0.5216 0.8274 -0.2081
vn -0.5216 0.8510 -0.0618
vn -0.5216 0.7412 -0.4227
vn -0.5216 0.6000 -0.6066
vn -0.5215 0.4273 -0.7385
vn -0.5216 0.2235 -0.8234
vn -0.2627 0.9294 -0.2592
vn -0.2618 0.9651 -0.0000
vn -0.2628 0.8353 -0.4830
vn -0.2627 0.6862 -0.6783
vn -0.2626 0.4824 -0.8357
vn -0.2627 0.2471 -0.9327
vn -0.2627 0.0039 -0.9649
vn -0.5216 0.0039 -0.8532
vn -0.5216 -0.2235 -0.8234
vn -0.5216 -0.4274 -0.7385
vn -0.5216 -0.6000 -0.6066
vn -0.5216 -0.7412 -0.4227
vn -0.5216 -0.8274 -0.2081
vn -0.5216 -0.8510 -0.0618
vn -0.5216 -0.8274 0.2081
vn -0.5216 -0.7412 0.4227
vn -0.5216 -0.6000 0.6066
vn -0.5216 -0.4275 0.7384
vn -0.5216 -0.2235 0.8234
vn -0.5216 0.0040 0.8532
vn -0.5216 0.2235 0.8234
vn -0.2626 -0.8353 0.4829
vn -0.2627 -0.9294 0.2592
vn -0.2627 -0.6862 0.6783
vn -0.2628 -0.4823 0.8356
vn -0.2627 -0.2471 0.9327
vn -0.2627 0.0039 0.9649
vn -0.2627 0.2471 0.9327
vn -0.2627 0.4824 0.8357
vn -0.2627 0.6863 0.6782
vn -0.2627 0.8353 0.4830
vn -0.5216 0.7412 0.4227
vn -0.5216 0.8274 0.2081
vn -0.5216 0.8510 -0.0617
vn -0.2627 0.9294 0.2592
vn -0.0039 0.0039 1.0000
vn -0.0039 0.2549 0.9670
vn -0.0039 0.7098 0.7044
vn -0.0039 0.8667 0.4989
vn -0.0039 0.9686 0.2485
vn -0.0039 1.0000 -0.0003
vn 0.2627 0.2471 0.9327
vn 0.2627 0.0039 0.9649
vn -0.0039 -0.2549 0.9670
vn -0.0039 -0.4980 0.8671
vn -0.0039 -0.7098 0.7044
vn -0.0039 -0.8667 0.4989
vn -0.0039 -0.9686 0.2485
vn -0.2612 -0.9653 0.0000
vn -0.2627 -0.9294 -0.2592
vn -0.2627 -0.8353 -0.4830
vn -0.2627 -0.6863 -0.6782
vn -0.2628 -0.4823 -0.8356
vn -0.2627 -0.2470 -0.9327
vn -0.0039 -0.2549 -0.9670
vn -0.0039 0.0039 -1.0000
vn -0.0039 0.2549 -0.9670
vn -0.0039 0.4980 -0.8671
vn -0.0039 0.7098 -0.7044
vn -0.0039 0.8667 -0.4989
vn -0.0039 0.9686 -0.2485
vn 0.2627 0.9294 -0.2592
vn 0.2618 0.9651 -0.0000
vn 0.2627 0.8353 -0.4830
vn 0.2627 0.6863 -0.6782
vn 0.2627 0.4824 -0.8357
vn 0.2627 0.2471 -0.9327
vn 0.5216 0.8274 -0.2081
vn 0.5216 0.8510 -0.0618
vn 0.5216 0.7412 -0.4227
vn 0.5216 0.6000 -0.6066
vn 0.5216 0.4274 -0.7385
vn 0.5216 0.2235 -0.8234
vn 0.5216 0.0039 -0.8532
vn 0.2627 0.0039 -0.9649
vn 0.2627 -0.2470 -0.9327
vn 0.2627 -0.4824 -0.8357
vn -0.0039 -0.4981 -0.8671
vn -0.0039 -0.7098 -0.7044
vn -0.0039 -0.8667 -0.4989
vn -0.0039 -0.9686 -0.2485
vn -0.0039 -1.0000 -0.0000
vn 0.2627 -0.6862 -0.6783
vn 0.2626 -0.8353 -0.4829
vn 0.2627 -0.9294 -0.2592
vn 0.2618 -0.9651 0.0000
vn 0.2627 -0.9294 0.2592
vn 0.2627 -0.8353 0.4830
vn 0.2627 -0.6863 0.6782
vn 0.2627 -0.4824 0.8357
vn 0.2627 -0.2471 0.9327
vn 0.5216 -0.7412 -0.4227
vn 0.5216 -0.6000 -0.6066
vn 0.5215 -0.4274 -0.7385
vn 0.5215 -0.2235 -0.8234
vn 0.5216 -0.4274 0.7385
vn 0.5216 -0.2235 0.8234
vn 0.5216 0.0039 0.8532
vn 0.5216 0.2235 0.8234
vn 0.5216 0.4275 0.7384
vn 0.2626 0.4824 0.8357
vn -0.0039 0.4981 0.8671
vn 0.2627 0.6862 0.6783
vn 0.2627 0.8353 0.4830
vn 0.2627 0.9294 0.2592
vn 0.5216 0.6000 0.6066
vn 0.5216 0.7412 0.4227
vn 0.5216 0.8274 0.2081
vn 0.7569 0.5686 0.3222
vn 0.7568 0.4666 0.4576
vn 0.7568 0.3255 0.5668
vn 0.7568 0.1687 0.6315
vn 0.7568 0.0039 0.6536
vn 0.7569 -0.1686 0.6315
vn 0.7568 -0.3255 0.5668
vn 0.5216 -0.6000 0.6066
vn 0.5216 -0.7412 0.4227
vn 0.5216 -0.8274 0.2081
vn 0.5216 -0.8510 -0.0618
vn 0.5216 -0.8274 -0.2081
vn 0.7568 -0.6314 -0.1689
vn 0.7569 -0.5686 -0.3222
vn 0.7568 -0.4666 -0.4576
vn 0.7568 -0.3255 -0.5668
vn 0.7568 -0.1687 -0.6315
vn 0.7569 0.0039 -0.6536
vn 0.7569 0.1686 -0.6315
vn 0.7568 0.3255 -0.5668
vn 0.7569 0.4667 -0.4576
vn 0.7568 0.5686 -0.3223
vn 0.7568 0.6314 -0.1690
vn 0.7562 0.6543 0.0000
vn 0.9137 0.3961 -0.0908
vn 0.9137 0.4039 -0.0444
vn 0.9137 0.3490 -0.2081
vn 0.9137 0.2863 -0.2884
vn 0.9137 0.2000 -0.3537
vn 0.9137 0.1059 -0.3924
vn 0.9843 0.1765 0.0000
vn 0.9843 0.1530 -0.0880
vn 0.9843 0.1294 -0.1200
vn 0.9843 0.0902 -0.1517
vn 0.9843 0.0431 -0.1711
vn 0.9843 0.0039 -0.1764
vn 0.9137 0.0039 -0.4063
vn 0.9137 -0.1059 -0.3923
vn 0.9137 -0.2000 -0.3537
vn 0.9137 -0.2863 -0.2884
vn 0.9137 -0.3490 -0.2081
vn 0.9137 -0.3961 -0.0908
vn 0.9137 -0.4039 -0.0444
vn 0.7562 -0.6543 0.0000
vn 0.7568 -0.6314 0.1690
vn 0.7569 -0.5686 0.3222
vn 0.7569 -0.4667 0.4576
vn 0.9137 -0.3961 0.0908
vn 0.9137 -0.3490 0.2081
vn 0.9137 -0.2863 0.2884
vn 0.9137 -0.2000 0.3537
vn 0.9137 -0.1059 0.3923
vn 0.9137 0.0039 0.4063
vn 0.9137 0.1059 0.3924
vn 0.9137 0.2000 0.3537
vn 0.9137 0.2863 0.2884
vn 0.9137 0.3490 0.2081
vn 0.9137 0.3961 0.0908
vn 0.7568 0.6314 0.1690
vn 0.9843 0.0902 0.1517
vn 0.9843 0.0431 0.1711
vn 0.9843 0.1294 0.1200
vn 0.9843 0.1529 0.0880
vn 1.0000 0.0039 -0.0000
vn 0.9843 0.0039 0.1764
vn 0.9843 -0.0431 0.1711
vn 0.9843 -0.0902 0.1517
vn 0.9843 -0.1294 0.1200
vn 0.9843 -0.1530 0.0880
vn 0.9843 -0.1765 -0.0000
vn 0.9843 -0.1529 -0.0880
vn 0.9843 -0.1294 -0.1200
vn 0.9843 -0.0902 -0.1517
vn 0.9843 -0.0432 -0.1711
usemtl ChuckBall
s 1
f 1/1/1 2/2/1 3/3/2
f 4/4/3 2/2/1 1/1/1
f 5/5/4 4/4/3 1/1/1
f 4/4/3 6/6/5 2/2/1
f 6/6/5 7/7/6 2/2/1
f 2/2/1 7/7/6 8/8/7
f 6/6/5 9/9/8 7/7/6
f 9/9/8 10/10/9 7/7/6
f 7/7/6 10/10/9 11/11/2
f 9/9/8 12/12/10 10/10/9
f 12/12/10 13/13/11 10/10/9
f 10/10/9 13/13/11 14/14/7
f 12/12/10 15/15/12 13/13/11
f 15/15/12 16/16/13 13/13/11
f 13/13/11 16/16/13 17/17/7
f 15/15/12 18/18/14 16/16/13
f 18/18/14 19/19/15 16/16/13
f 16/16/13 19/19/15 20/20/2
f 18/18/14 21/21/16 19/19/15
f 21/21/16 22/22/17 19/19/15
f 19/19/15 22/22/17 23/23/7
f 21/21/16 24/24/18 22/22/17
f 24/24/18 25/25/19 22/22/17
f 22/22/17 25/25/19 26/26/7
f 24/24/18 27/27/20 25/25/19
f 27/27/20 28/28/21 25/25/19
f 25/25/19 28/28/21 29/29/7
f 27/27/20 30/30/22 28/28/21
f 30/30/22 31/31/23 28/28/21
f 28/28/21 31/31/23 32/32/2
f 30/30/22 33/33/24 31/31/23
f 33/33/24 34/34/25 31/31/23
f 31/31/23 34/34/25 35/35/7
f 33/33/24 36/36/26 34/34/25
f 36/36/26 37/37/25 34/34/25
f 34/34/25 37/37/25 38/38/7
f 36/36/26 39/39/27 37/37/25
f 39/39/27 40/40/28 37/37/25
f 37/37/25 40/40/28 41/41/7
f 39/39/27 42/42/29 40/40/28
f 42/42/29 43/43/30 40/40/28
f 40/40/28 43/43/30 44/44/7
f 42/42/29 45/45/31 43/43/30
f 45/45/31 46/46/32 43/43/30
f 43/43/30 46/46/32 47/47/2
f 45/45/31 48/48/33 46/46/32
f 48/48/33 49/49/34 46/46/32
f 46/46/32 49/49/34 50/50/7
f 48/48/33 51/51/35 49/49/34
f 51/51/35 52/52/36 49/49/34
f 49/49/34 52/52/36 53/53/7
f 51/51/35 54/54/37 52/52/36
f 54/54/37 55/55/38 52/52/36
f 52/52/36 55/55/38 56/56/2
f 54/54/37 57/57/39 55/55/38
f 57/57/39 58/58/40 55/55/38
f 55/55/38 58/58/40 59/59/7
f 57/57/39 60/60/41 58/58/40
f 60/60/41 61/61/42 58/58/40
f 58/58/40 61/61/42 62/62/7
f 60/60/41 63/63/43 61/61/42
f 63/63/43 64/64/44 61/61/42
f 61/61/42 64/64/44 65/65/7
f 63/63/43 66/66/45 64/64/44
f 66/66/45 67/67/46 64/64/44
f 64/64/44 67/67/46 68/68/7
f 66/66/45 69/69/47 67/67/46
f 69/69/47 70/70/1 67/67/46
f 67/67/46 70/70/1 71/71/2
f 69/69/47 72/72/48 70/70/1
f 72/72/48 73/73/1 70/70/1
f 70/70/1 73/73/1 74/74/7
f 75/75/49 63/63/43 60/60/41
f 76/76/50 75/75/49 60/60/41
f 77/77/51 66/66/45 63/63/43
f 75/75/49 77/77/51 63/63/43
f 78/78/52 69/69/47 66/66/45
f 77/77/51 78/78/52 66/66/45
f 79/79/53 72/72/48 69/69/47
f 78/78/52 79/79/53 69/69/47
f 80/80/54 75/75/49 76/76/50
f 81/81/55 80/80/54 76/76/50
f 81/81/55 76/76/50 82/82/56
f 82/82/56 76/76/50 57/57/39
f 82/82/56 57/57/39 54/54/37
f 83/83/57 82/82/56 54/54/37
f 83/83/57 54/54/37 51/51/35
f 84/84/58 83/83/57 51/51/35
f 84/84/58 51/51/35 48/48/33
f 85/85/59 84/84/58 48/48/33
f 85/85/59 48/48/33 45/45/31
f 86/86/60 85/85/59 45/45/31
f 86/86/60 45/45/31 42/42/29
f 87/87/61 86/86/60 42/42/29
f 87/87/61 42/42/29 39/39/27
f 88/88/62 87/87/61 39/39/27
f 88/88/62 39/39/27 36/36/26
f 89/89/63 88/88/62 36/36/26
f 89/89/63 36/36/26 33/33/24
f 90/90/64 89/89/63 33/33/24
f 90/90/64 33/33/24 30/30/22
f 91/91/65 90/90/64 30/30/22
f 91/91/65 30/30/22 27/27/20
f 92/92/66 91/91/65 27/27/20
f 92/92/66 27/27/20 24/24/18
f 93/93/67 92/92/66 24/24/18
f 93/93/67 24/24/18 21/21/16
f 94/94/68 93/93/67 21/21/16
f 94/94/68 21/21/16 18/18/14
f 95/95/69 94/94/68 18/18/14
f 95/95/69 18/18/14 15/15/12
f 96/96/70 95/95/69 15/15/12
f 96/96/70 15/15/12 12/12/10
f 97/97/71 96/96/70 12/12/10
f 97/97/71 12/12/10 9/9/8
f 98/98/72 97/97/71 9/9/8
f 98/98/72 9/9/8 6/6/5
f 99/99/73 98/98/72 6/6/5
f 99/99/73 6/6/5 4/4/3
f 100/100/74 99/99/73 4/4/3
f 100/100/74 4/4/3 5/5/4
f 101/101/53 100/100/74 5/5/4
f 102/102/75 100/100/74 101/101/53
f 103/103/76 102/102/75 101/101/53
f 104/104/77 99/99/73 100/100/74
f 102/102/75 104/104/77 100/100/74
f 105/105/78 98/98/72 99/99/73
f 104/104/77 105/105/78 99/99/73
f 106/106/79 97/97/71 98/98/72
f 105/105/78 106/106/79 98/98/72
f 107/107/80 96/96/70 97/97/71
f 106/106/79 107/107/80 97/97/71
f 108/108/81 102/102/75 103/103/76
f 109/109/82 108/108/81 103/103/76
f 110/110/83 104/104/77 102/102/75
f 108/108/81 110/110/83 102/102/75
f 111/111/84 105/105/78 104/104/77
f 110/110/83 111/111/84 104/104/77
f 112/112/85 106/106/79 105/105/78
f 111/111/84 112/112/85 105/105/78
f 113/113/86 107/107/80 106/106/79
f 112/112/85 113/113/86 106/106/79
f 113/113/86 114/114/87 107/107/80
f 114/114/87 115/115/88 107/107/80
f 107/107/80 115/115/88 96/96/70
f 115/115/88 95/95/69 96/96/70
f 115/115/88 116/116/89 95/95/69
f 116/116/89 94/94/68 95/95/69
f 116/116/89 117/117/90 94/94/68
f 117/117/90 93/93/67 94/94/68
f 117/117/90 118/118/91 93/93/67
f 118/118/91 92/92/66 93/93/67
f 118/118/91 119/119/92 92/92/66
f 119/119/92 91/91/65 92/92/66
f 119/119/92 120/120/93 91/91/65
f 120/120/93 90/90/64 91/91/65
f 120/120/93 121/121/94 90/90/64
f 121/121/94 89/89/63 90/90/64
f 121/121/94 122/122/95 89/89/63
f 122/122/95 88/88/62 89/89/63
f 122/122/95 123/123/96 88/88/62
f 123/123/96 87/87/61 88/88/62
f 123/123/96 124/124/97 87/87/61
f 124/124/97 86/86/60 87/87/61
f 124/124/97 125/125/98 86/86/60
f 125/125/98 85/85/59 86/86/60
f 125/125/98 126/126/99 85/85/59
f 126/126/99 84/84/58 85/85/59
f 126/126/99 127/127/100 84/84/58
f 127/127/100 83/83/57 84/84/58
f 127/127/100 128/128/101 83/83/57
f 128/128/101 82/82/56 83/83/57
f 128/128/101 81/81/55 82/82/56
f 129/129/102 123/123/96 122/122/95
f 130/130/103 129/129/102 122/122/95
f 131/131/104 124/124/97 123/123/96
f 129/129/102 131/131/104 123/123/96
f 132/132/105 125/125/98 124/124/97
f 131/131/104 132/132/105 124/124/97
f 133/133/106 126/126/99 125/125/98
f 132/132/105 133/133/106 125/125/98
f 134/134/107 127/127/100 126/126/99
f 133/133/106 134/134/107 126/126/99
f 135/135/108 128/128/101 127/127/100
f 134/134/107 135/135/108 127/127/100
f 136/136/109 81/81/55 128/128/101
f 135/135/108 136/136/109 128/128/101
f 136/136/109 137/137/110 81/81/55
f 137/137/110 80/80/54 81/81/55
f 137/137/110 138/138/111 80/80/54
f 138/138/111 139/139/112 80/80/54
f 80/80/54 139/139/112 75/75/49
f 139/139/112 77/77/51 75/75/49
f 139/139/112 140/140/113 77/77/51
f 140/140/113 78/78/52 77/77/51
f 140/140/113 141/141/114 78/78/52
f 141/141/114 79/79/53 78/78/52
f 142/142/115 140/140/113 139/139/112
f 138/138/111 142/142/115 139/139/112
f 143/143/82 141/141/114 140/140/113
f 142/142/115 143/143/82 140/140/113
f 144/144/116 134/134/107 133/133/106
f 145/145/117 135/135/108 134/134/107
f 144/144/116 145/145/117 134/134/107
f 146/146/118 137/137/110 136/136/109
f 147/147/119 138/138/111 137/137/110
f 146/146/118 147/147/119 137/137/110
f 148/148/120 142/142/115 138/138/111
f 147/147/119 148/148/120 138/138/111
f 149/149/121 143/143/82 142/142/115
f 148/148/120 149/149/121 142/142/115
f 150/150/122 145/145/117 144/144/116
f 151/151/123 150/150/122 144/144/116
f 151/151/123 144/144/116 152/152/124
f 152/152/124 144/144/116 133/133/106
f 152/152/124 133/133/106 132/132/105
f 153/153/125 152/152/124 132/132/105
f 153/153/125 132/132/105 131/131/104
f 154/154/126 153/153/125 131/131/104
f 154/154/126 131/131/104 129/129/102
f 155/155/127 154/154/126 129/129/102
f 155/155/127 129/129/102 130/130/103
f 156/156/128 155/155/127 130/130/103
f 156/156/128 130/130/103 157/157/129
f 157/157/129 130/130/103 121/121/94
f 157/157/129 121/121/94 120/120/93
f 158/158/130 157/157/129 120/120/93
f 158/158/130 120/120/93 119/119/92
f 159/159/131 158/158/130 119/119/92
f 159/159/131 119/119/92 118/118/91
f 160/160/132 159/159/131 118/118/91
f 160/160/132 118/118/91 117/117/90
f 161/161/133 160/160/132 117/117/90
f 161/161/133 117/117/90 116/116/89
f 162/162/134 161/161/133 116/116/89
f 162/162/134 116/116/89 115/115/88
f 114/114/87 162/162/134 115/115/88
f 130/130/103 122/122/95 121/121/94
f 163/163/135 162/162/134 114/114/87
f 164/164/136 163/163/135 114/114/87
f 164/164/136 114/114/87 113/113/86
f 165/165/137 164/164/136 113/113/86
f 165/165/137 113/113/86 112/112/85
f 166/166/138 165/165/137 112/112/85
f 166/166/138 112/112/85 111/111/84
f 167/167/139 166/166/138 111/111/84
f 167/167/139 111/111/84 110/110/83
f 168/168/140 167/167/139 110/110/83
f 168/168/140 110/110/83 108/108/81
f 169/169/141 168/168/140 108/108/81
f 169/169/141 108/108/81 109/109/82
f 170/170/121 169/169/141 109/109/82
f 171/171/142 169/169/141 170/170/121
f 172/172/143 171/171/142 170/170/121
f 173/173/144 168/168/140 169/169/141
f 171/171/142 173/173/144 169/169/141
f 174/174/145 167/167/139 168/168/140
f 173/173/144 174/174/145 168/168/140
f 175/175/146 166/166/138 167/167/139
f 174/174/145 175/175/146 167/167/139
f 176/176/147 165/165/137 166/166/138
f 175/175/146 176/176/147 166/166/138
f 177/177/148 171/171/142 172/172/143
f 178/178/149 177/177/148 172/172/143
f 179/179/150 173/173/144 171/171/142
f 177/177/148 179/179/150 171/171/142
f 180/180/151 174/174/145 173/173/144
f 179/179/150 180/180/151 173/173/144
f 181/181/152 175/175/146 174/174/145
f 180/180/151 181/181/152 174/174/145
f 182/182/153 176/176/147 175/175/146
f 181/181/152 182/182/153 175/175/146
f 182/182/153 183/183/154 176/176/147
f 183/183/154 184/184/155 176/176/147
f 176/176/147 184/184/155 165/165/137
f 184/184/155 164/164/136 165/165/137
f 184/184/155 185/185/156 164/164/136
f 185/185/156 163/163/135 164/164/136
f 185/185/156 186/186/157 163/163/135
f 186/186/157 187/187/158 163/163/135
f 163/163/135 187/187/158 162/162/134
f 187/187/158 161/161/133 162/162/134
f 187/187/158 188/188/159 161/161/133
f 188/188/159 160/160/132 161/161/133
f 188/188/159 189/189/160 160/160/132
f 189/189/160 159/159/131 160/160/132
f 189/189/160 190/190/161 159/159/131
f 190/190/161 158/158/130 159/159/131
f 190/190/161 191/191/162 158/158/130
f 191/191/162 157/157/129 158/158/130
f 191/191/162 156/156/128 157/157/129
f 192/192/163 188/188/159 187/187/158
f 186/186/157 192/192/163 187/187/158
f 193/193/164 189/189/160 188/188/159
f 192/192/163 193/193/164 188/188/159
f 194/194/165 190/190/161 189/189/160
f 193/193/164 194/194/165 189/189/160
f 195/195/166 191/191/162 190/190/161
f 194/194/165 195/195/166 190/190/161
f 196/196/167 156/156/128 191/191/162
f 195/195/166 196/196/167 191/191/162
f 196/196/167 197/197/168 156/156/128
f 197/197/168 155/155/127 156/156/128
f 197/197/168 198/198/169 155/155/127
f 198/198/169 154/154/126 155/155/127
f 198/198/169 199/199/170 154/154/126
f 199/199/170 153/153/125 154/154/126
f 199/199/170 200/200/171 153/153/125
f 200/200/171 152/152/124 153/153/125
f 200/200/171 151/151/123 152/152/124
f 201/201/172 193/193/164 192/192/163
f 202/202/173 201/201/172 192/192/163
f 202/202/173 192/192/163 186/186/157
f 203/203/174 202/202/173 186/186/157
f 203/203/174 186/186/157 185/185/156
f 204/204/175 203/203/174 185/185/156
f 204/204/175 185/185/156 184/184/155
f 183/183/154 204/204/175 184/184/155
f 205/205/176 199/199/170 198/198/169
f 206/206/177 200/200/171 199/199/170
f 205/205/176 206/206/177 199/199/170
f 207/207/178 151/151/123 200/200/171
f 206/206/177 207/207/178 200/200/171
f 207/207/178 208/208/179 151/151/123
f 208/208/179 150/150/122 151/151/123
f 208/208/179 209/209/180 150/150/122
f 209/209/180 210/210/181 150/150/122
f 150/150/122 210/210/181 145/145/117
f 210/210/181 211/211/182 145/145/117
f 145/145/117 211/211/182 135/135/108
f 211/211/182 136/136/109 135/135/108
f 211/211/182 146/146/118 136/136/109
f 212/212/183 146/146/118 211/211/182
f 210/210/181 212/212/183 211/211/182
f 212/212/183 213/213/184 146/146/118
f 213/213/184 147/147/119 146/146/118
f 213/213/184 214/214/185 147/147/119
f 214/214/185 148/148/120 147/147/119
f 214/214/185 215/215/143 148/148/120
f 215/215/143 149/149/121 148/148/120
f 216/216/186 212/212/183 210/210/181
f 209/209/180 216/216/186 210/210/181
f 217/217/187 213/213/184 212/212/183
f 216/216/186 217/217/187 212/212/183
f 218/218/188 214/214/185 213/213/184
f 217/217/187 218/218/188 213/213/184
f 219/219/149 215/215/143 214/214/185
f 218/218/188 219/219/149 214/214/185
f 220/220/189 217/217/187 216/216/186
f 221/221/190 220/220/189 216/216/186
f 221/221/190 216/216/186 209/209/180
f 222/222/191 221/221/190 209/209/180
f 222/222/191 209/209/180 208/208/179
f 223/223/192 222/222/191 208/208/179
f 223/223/192 208/208/179 207/207/178
f 224/224/193 223/223/192 207/207/178
f 224/224/193 207/207/178 206/206/177
f 225/225/194 224/224/193 206/206/177
f 225/225/194 206/206/177 205/205/176
f 226/226/195 225/225/194 205/205/176
f 226/226/195 205/205/176 227/227/196
f 227/227/196 205/205/176 198/198/169
f 227/227/196 198/198/169 197/197/168
f 228/228/197 227/227/196 197/197/168
f 228/228/197 197/197/168 196/196/167
f 229/229/198 228/228/197 196/196/167
f 229/229/198 196/196/167 195/195/166
f 230/230/199 229/229/198 195/195/166
f 230/230/199 195/195/166 194/194/165
f 231/231/200 230/230/199 194/194/165
f 231/231/200 194/194/165 193/193/164
f 201/201/172 231/231/200 193/193/164
f 232/232/201 231/231/200 201/201/172
f 233/233/202 232/232/201 201/201/172
f 233/233/202 201/201/172 202/202/173
f 234/234/203 233/233/202 202/202/173
f 234/234/203 202/202/173 203/203/174
f 235/235/204 234/234/203 203/203/174
f 235/235/204 203/203/174 204/204/175
f 236/236/205 235/235/204 204/204/175
f 236/236/205 204/204/175 183/183/154
f 237/237/206 236/236/205 183/183/154
f 237/237/206 183/183/154 182/182/153
f 238/238/207 237/237/206 182/182/153
f 238/238/207 182/182/153 181/181/152
f 239/239/208 238/238/207 181/181/152
f 239/239/208 181/181/152 180/180/151
f 240/240/209 239/239/208 180/180/151
f 240/240/209 180/180/151 179/179/150
f 241/241/210 240/240/209 179/179/150
f 241/241/210 179/179/150 177/177/148
f 242/242/211 241/241/210 177/177/148
f 242/242/211 177/177/148 178/178/149
f 243/243/212 242/242/211 178/178/149
f 244/244/213 242/242/211 243/243/212
f 245/245/214 244/244/213 243/243/212
f 246/246/215 241/241/210 242/242/211
f 244/244/213 246/246/215 242/242/211
f 247/247/216 240/240/209 241/241/210
f 246/246/215 247/247/216 241/241/210
f 248/248/217 239/239/208 240/240/209
f 247/247/216 248/248/217 240/240/209
f 249/249/218 238/238/207 239/239/208
f 248/248/217 249/249/218 239/239/208
f 250/250/219 244/244/213 245/245/214
f 251/251/219 250/250/219 245/245/214
f 252/252/220 246/246/215 244/244/213
f 250/250/219 252/252/220 244/244/213
f 253/253/221 247/247/216 246/246/215
f 252/252/220 253/253/221 246/246/215
f 254/254/222 248/248/217 247/247/216
f 253/253/221 254/254/222 247/247/216
f 255/255/223 249/249/218 248/248/217
f 254/254/222 255/255/223 248/248/217
f 255/255/223 256/256/224 249/249/218
f 256/256/224 257/257/225 249/249/218
f 249/249/218 257/257/225 238/238/207
f 257/257/225 237/237/206 238/238/207
f 257/257/225 258/258/226 237/237/206
f 258/258/226 236/236/205 237/237/206
f 258/258/226 259/259/227 236/236/205
f 259/259/227 235/235/204 236/236/205
f 259/259/227 260/260/228 235/235/204
f 260/260/228 234/234/203 235/235/204
f 260/260/228 261/261/229 234/234/203
f 261/261/229 233/233/202 234/234/203
f 261/261/229 262/262/230 233/233/202
f 262/262/230 232/232/201 233/233/202
f 262/262/230 263/263/231 232/232/201
f 263/263/231 264/264/232 232/232/201
f 232/232/201 264/264/232 231/231/200
f 264/264/232 230/230/199 231/231/200
f 264/264/232 265/265/233 230/230/199
f 265/265/233 229/229/198 230/230/199
f 265/265/233 266/266/234 229/229/198
f 266/266/234 228/228/197 229/229/198
f 266/266/234 267/267/235 228/228/197
f 267/267/235 227/227/196 228/228/197
f 267/267/235 226/226/195 227/227/196
f 268/268/236 265/265/233 264/264/232
f 263/263/231 268/268/236 264/264/232
f 269/269/237 266/266/234 265/265/233
f 268/268/236 269/269/237 265/265/233
f 270/270/238 267/267/235 266/266/234
f 269/269/237 270/270/238 266/266/234
f 271/271/239 226/226/195 267/267/235
f 270/270/238 271/271/239 267/267/235
f 271/271/239 272/272/240 226/226/195
f 272/272/240 225/225/194 226/226/195
f 272/272/240 273/273/241 225/225/194
f 273/273/241 224/224/193 225/225/194
f 273/273/241 274/274/242 224/224/193
f 274/274/242 223/223/192 224/224/193
f 274/274/242 275/275/243 223/223/192
f 275/275/243 222/222/191 223/223/192
f 275/275/243 276/276/244 222/222/191
f 276/276/244 221/221/190 222/222/191
f 276/276/244 277/277/245 221/221/190
f 277/277/245 220/220/189 221/221/190
f 277/277/245 278/278/246 220/220/189
f 278/278/246 279/279/247 220/220/189
f 220/220/189 279/279/247 217/217/187
f 279/279/247 218/218/188 217/217/187
f 279/279/247 280/280/212 218/218/188
f 280/280/212 219/219/149 218/218/188
f 281/281/214 280/280/212 279/279/247
f 278/278/246 281/281/214 279/279/247
f 282/282/248 275/275/243 274/274/242
f 283/283/249 282/282/248 274/274/242
f 284/284/250 276/276/244 275/275/243
f 282/282/248 284/284/250 275/275/243
f 285/285/251 277/277/245 276/276/244
f 284/284/250 285/285/251 276/276/244
f 286/286/219 278/278/246 277/277/245
f 285/285/251 286/286/219 277/277/245
f 287/287/219 281/281/214 278/278/246
f 286/286/219 287/287/219 278/278/246
f 282/282/248 283/283/249 288/288/252
f 284/284/250 282/282/248 289/289/252
f 285/285/251 284/284/250 290/290/252
f 286/286/219 285/285/251 291/291/252
f 287/287/219 286/286/219 292/292/252
f 283/283/249 274/274/242 273/273/241
f 293/293/253 283/283/249 273/273/241
f 293/293/253 273/273/241 272/272/240
f 294/294/254 293/293/253 272/272/240
f 294/294/254 272/272/240 271/271/239
f 295/295/255 294/294/254 271/271/239
f 295/295/255 271/271/239 270/270/238
f 296/296/256 295/295/255 270/270/238
f 296/296/256 270/270/238 269/269/237
f 297/297/257 296/296/256 269/269/237
f 297/297/257 269/269/237 268/268/236
f 298/298/258 297/297/257 268/268/236
f 298/298/258 268/268/236 263/263/231
f 299/299/258 298/298/258 263/263/231
f 299/299/258 263/263/231 262/262/230
f 300/300/258 299/299/258 262/262/230
f 300/300/258 262/262/230 261/261/229
f 301/301/259 300/300/258 261/261/229
f 301/301/259 261/261/229 260/260/228
f 302/302/260 301/301/259 260/260/228
f 302/302/260 260/260/228 259/259/227
f 303/303/261 302/302/260 259/259/227
f 303/303/261 259/259/227 258/258/226
f 304/304/262 303/303/261 258/258/226
f 304/304/262 258/258/226 257/257/225
f 256/256/224 304/304/262 257/257/225
f 304/304/262 256/256/224 305/305/252
f 303/303/261 304/304/262 306/306/252
f 302/302/260 303/303/261 307/307/252
f 301/301/259 302/302/260 308/308/252
f 300/300/258 301/301/259 309/309/252
f 256/256/224 255/255/223 310/310/252
f 255/255/223 254/254/222 311/311/252
f 254/254/222 253/253/221 312/312/252
f 253/253/221 252/252/220 313/313/252
f 252/252/220 250/250/219 314/314/252
f 250/250/219 251/251/219 315/315/252
f 76/76/50 60/60/41 57/57/39
f 299/299/258 300/300/258 316/316/252
f 298/298/258 299/299/258 317/317/252
f 297/297/257 298/298/258 318/318/252
f 296/296/256 297/297/257 319/319/252
f 295/295/255 296/296/256 320/320/252
f 294/294/254 295/295/255 321/321/252
f 293/293/253 294/294/254 322/322/252
f 283/283/249 293/293/253 323/323/252
