%YAML 1.1
%TAG !u! tag:unity3d.com,2011:
--- !u!74 &7400000
AnimationClip:
  m_ObjectHideFlags: 0
  m_PrefabParentObject: {fileID: 0}
  m_PrefabInternal: {fileID: 0}
  m_Name: DaveAnim
  serializedVersion: 6
  m_Legacy: 1
  m_Compressed: 0
  m_UseHighQualityCurve: 1
  m_RotationCurves:
  - curve:
      serializedVersion: 2
      m_Curve:
      - serializedVersion: 2
        time: 0
        value: {x: 0, y: 0, z: 0, w: 1}
        inSlope: {x: 0, y: 0, z: -0.053368285, w: -0.000025033949}
        outSlope: {x: 0, y: 0, z: -0.053368285, w: -0.000025033949}
        tangentMode: 0
      - serializedVersion: 2
        time: 0.016666668
        value: {x: 0, y: 0, z: -0.00088947144, w: 0.9999996}
        inSlope: {x: 0, y: 0, z: -0.1017719, w: -0.0001734495}
        outSlope: {x: 0, y: 0, z: -0.1017719, w: -0.0001734495}
        tangentMode: 0
      - serializedVersion: 2
        time: 0.033333335
        value: {x: 0, y: 0, z: -0.0033923967, w: 0.9999942}
        inSlope: {x: 0, y: 0, z: -0.19113106, w: -0.0007778405}
        outSlope: {x: 0, y: 0, z: -0.19113106, w: -0.0007778405}
        tangentMode: 0
      - serializedVersion: 2
        time: 0.050000004
        value: {x: 0, y: 0, z: -0.007260507, w: 0.99997365}
        inSlope: {x: 0, y: 0, z: -0.26559138, w: -0.0020760298}
        outSlope: {x: 0, y: 0, z: -0.26559138, w: -0.0020760298}
        tangentMode: 0
      - serializedVersion: 2
        time: 0.06666667
        value: {x: 0, y: 0, z: -0.012245443, w: 0.999925}
        inSlope: {x: 0, y: 0, z: -0.3251465, w: -0.00412345}
        outSlope: {x: 0, y: 0, z: -0.3251465, w: -0.00412345}
        tangentMode: 0
      - serializedVersion: 2
        time: 0.083333336
        value: {x: 0, y: 0, z: -0.018098723, w: 0.9998362}
        inSlope: {x: 0, y: 0, z: -0.36978966, w: -0.0068092356}
        outSlope: {x: 0, y: 0, z: -0.36978966, w: -0.0068092356}
        tangentMode: 0
      - serializedVersion: 2
        time: 0.1
        value: {x: 0, y: 0, z: -0.024571763, w: 0.99969804}
        inSlope: {x: 0, y: 0, z: -0.39951605, w: -0.009893776}
        outSlope: {x: 0, y: 0, z: -0.39951605, w: -0.009893776}
        tangentMode: 0
      - serializedVersion: 2
        time: 0.11666667
        value: {x: 0, y: 0, z: -0.031415924, w: 0.9995064}
        inSlope: {x: 0, y: 0, z: -0.4143263, w: -0.013048051}
        outSlope: {x: 0, y: 0, z: -0.4143263, w: -0.013048051}
        tangentMode: 0
      - serializedVersion: 2
        time: 0.13333334
        value: {x: 0, y: 0, z: -0.038382642, w: 0.9992631}
        inSlope: {x: 0, y: 0, z: -0.41422743, w: -0.015885828}
        outSlope: {x: 0, y: 0, z: -0.41422743, w: -0.015885828}
        tangentMode: 0
      - serializedVersion: 2
        time: 0.15
        value: {x: 0, y: 0, z: -0.045223508, w: 0.9989769}
        inSlope: {x: 0, y: 0, z: -0.3992333, w: -0.017999412}
        outSlope: {x: 0, y: 0, z: -0.3992333, w: -0.017999412}
        tangentMode: 0
      - serializedVersion: 2
        time: 0.16666667
        value: {x: 0, y: 0, z: -0.05169042, w: 0.9986631}
        inSlope: {x: 0, y: 0, z: -0.36936378, w: -0.019002559}
        outSlope: {x: 0, y: 0, z: -0.36936378, w: -0.019002559}
        tangentMode: 0
      - serializedVersion: 2
        time: 0.18333334
        value: {x: 0, y: 0, z: -0.057535633, w: 0.99834347}
        inSlope: {x: 0, y: 0, z: -0.32464197, w: -0.018566253}
        outSlope: {x: 0, y: 0, z: -0.32464197, w: -0.018566253}
        tangentMode: 0
      - serializedVersion: 2
        time: 0.2
        value: {x: 0, y: 0, z: -0.06251182, w: 0.99804425}
        inSlope: {x: 0, y: 0, z: -0.265089, w: -0.016456248}
        outSlope: {x: 0, y: 0, z: -0.265089, w: -0.016456248}
        tangentMode: 0
      - serializedVersion: 2
        time: 0.21666667
        value: {x: 0, y: 0, z: -0.06637193, w: 0.9977949}
        inSlope: {x: 0, y: 0, z: -0.1907196, w: -0.012556315}
        outSlope: {x: 0, y: 0, z: -0.1907196, w: -0.012556315}
        tangentMode: 0
      - serializedVersion: 2
        time: 0.23333333
        value: {x: 0, y: 0, z: -0.068869136, w: 0.9976257}
        inSlope: {x: 0, y: 0, z: -0.10153615, w: -0.006925464}
        outSlope: {x: 0, y: 0, z: -0.10153615, w: -0.006925464}
        tangentMode: 0
      - serializedVersion: 2
        time: 0.25
        value: {x: 0, y: 0, z: -0.06975647, w: 0.9975641}
        inSlope: {x: 0, y: 0, z: -0.008667352, w: -0.00059902784}
        outSlope: {x: 0, y: 0, z: -0.008667352, w: -0.00059902784}
        tangentMode: 0
      - serializedVersion: 2
        time: 0.26666668
        value: {x: 0, y: 0, z: -0.06915805, w: 0.99760574}
        inSlope: {x: 0, y: 0, z: 0.06933907, w: 0.0047671753}
        outSlope: {x: 0, y: 0, z: 0.06933907, w: 0.0047671753}
        tangentMode: 0
      - serializedVersion: 2
        time: 0.28333336
        value: {x: 0, y: 0, z: -0.06744517, w: 0.997723}
        inSlope: {x: 0, y: 0, z: 0.13250235, w: 0.008890621}
        outSlope: {x: 0, y: 0, z: 0.13250235, w: 0.008890621}
        tangentMode: 0
      - serializedVersion: 2
        time: 0.30000004
        value: {x: 0, y: 0, z: -0.0647413, w: 0.9979021}
        inSlope: {x: 0, y: 0, z: 0.18825996, w: 0.012132515}
        outSlope: {x: 0, y: 0, z: 0.18825996, w: 0.012132515}
        tangentMode: 0
      - serializedVersion: 2
        time: 0.31666672
        value: {x: 0, y: 0, z: -0.06116983, w: 0.9981274}
        inSlope: {x: 0, y: 0, z: 0.23661533, w: 0.014412391}
        outSlope: {x: 0, y: 0, z: 0.23661533, w: 0.014412391}
        tangentMode: 0
      - serializedVersion: 2
        time: 0.3333334
        value: {x: 0, y: 0, z: -0.056854114, w: 0.9983825}
        inSlope: {x: 0, y: 0, z: 0.27756605, w: 0.01571952}
        outSlope: {x: 0, y: 0, z: 0.27756605, w: 0.01571952}
        tangentMode: 0
      - serializedVersion: 2
        time: 0.35000008
        value: {x: 0, y: 0, z: -0.05191762, w: 0.9986514}
        inSlope: {x: 0, y: 0, z: 0.3111047, w: 0.01609503}
        outSlope: {x: 0, y: 0, z: 0.3111047, w: 0.01609503}
        tangentMode: 0
      - serializedVersion: 2
        time: 0.36666676
        value: {x: 0, y: 0, z: -0.04648395, w: 0.998919}
        inSlope: {x: 0, y: 0, z: 0.3372218, w: 0.015628325}
        outSlope: {x: 0, y: 0, z: 0.3372218, w: 0.015628325}
        tangentMode: 0
      - serializedVersion: 2
        time: 0.38333344
        value: {x: 0, y: 0, z: -0.040676884, w: 0.99917233}
        inSlope: {x: 0, y: 0, z: 0.35590714, w: 0.014446366}
        outSlope: {x: 0, y: 0, z: 0.35590714, w: 0.014446366}
        tangentMode: 0
      - serializedVersion: 2
        time: 0.40000013
        value: {x: 0, y: 0, z: -0.034620367, w: 0.99940056}
        inSlope: {x: 0, y: 0, z: 0.3671507, w: 0.012695779}
        outSlope: {x: 0, y: 0, z: 0.3671507, w: 0.012695779}
        tangentMode: 0
      - serializedVersion: 2
        time: 0.4166668
        value: {x: 0, y: 0, z: -0.028438518, w: 0.9995955}
        inSlope: {x: 0, y: 0, z: 0.37094343, w: 0.01055359}
        outSlope: {x: 0, y: 0, z: 0.37094343, w: 0.01055359}
        tangentMode: 0
      - serializedVersion: 2
        time: 0.4333335
        value: {x: 0, y: 0, z: -0.022255575, w: 0.99975234}
        inSlope: {x: 0, y: 0, z: 0.36727855, w: 0.008198612}
        outSlope: {x: 0, y: 0, z: 0.36727855, w: 0.008198612}
        tangentMode: 0
      - serializedVersion: 2
        time: 0.45000017
        value: {x: 0, y: 0, z: -0.01619589, w: 0.9998688}
        inSlope: {x: 0, y: 0, z: 0.3561526, w: 0.005811448}
        outSlope: {x: 0, y: 0, z: 0.3561526, w: 0.005811448}
        tangentMode: 0
      - serializedVersion: 2
        time: 0.46666685
        value: {x: 0, y: 0, z: -0.010383812, w: 0.99994606}
        inSlope: {x: 0, y: 0, z: 0.3375646, w: 0.0035691233}
        outSlope: {x: 0, y: 0, z: 0.3375646, w: 0.0035691233}
        tangentMode: 0
      - serializedVersion: 2
        time: 0.48333353
        value: {x: 0, y: 0, z: -0.0049437266, w: 0.9999878}
        inSlope: {x: 0, y: 0, z: 0.31151587, w: 0.0016182654}
        outSlope: {x: 0, y: 0, z: 0.31151587, w: 0.0016182654}
        tangentMode: 0
      - serializedVersion: 2
        time: 0.5000002
        value: {x: 0, y: 0, z: 0.000000049934307, w: 1}
        inSlope: {x: 0, y: 0, z: 0.29662722, w: 0}
        outSlope: {x: 0, y: 0, z: 0.29662722, w: 0}
        tangentMode: 0
      - serializedVersion: 2
        time: 0.5166668
        value: {x: 0, y: 0, z: 0.004943838, w: 0.9999878}
        inSlope: {x: 0, y: 0, z: 0.31151658, w: -0.0016182676}
        outSlope: {x: 0, y: 0, z: 0.31151658, w: -0.0016182676}
        tangentMode: 0
      - serializedVersion: 2
        time: 0.5333335
        value: {x: 0, y: 0, z: 0.010383926, w: 0.99994606}
        inSlope: {x: 0, y: 0, z: 0.33756506, w: -0.0035691294}
        outSlope: {x: 0, y: 0, z: 0.33756506, w: -0.0035691294}
        tangentMode: 0
      - serializedVersion: 2
        time: 0.55000013
        value: {x: 0, y: 0, z: 0.016195996, w: 0.9998688}
        inSlope: {x: 0, y: 0, z: 0.3561529, w: -0.0058132466}
        outSlope: {x: 0, y: 0, z: 0.3561529, w: -0.0058132466}
        tangentMode: 0
      - serializedVersion: 2
        time: 0.5666668
        value: {x: 0, y: 0, z: 0.022255678, w: 0.9997523}
        inSlope: {x: 0, y: 0, z: 0.36727858, w: -0.008198626}
        outSlope: {x: 0, y: 0, z: 0.36727858, w: -0.008198626}
        tangentMode: 0
      - serializedVersion: 2
        time: 0.58333343
        value: {x: 0, y: 0, z: 0.028438604, w: 0.9995955}
        inSlope: {x: 0, y: 0, z: 0.37094328, w: -0.0105518205}
        outSlope: {x: 0, y: 0, z: 0.37094328, w: -0.0105518205}
        tangentMode: 0
      - serializedVersion: 2
        time: 0.6000001
        value: {x: 0, y: 0, z: 0.03462044, w: 0.99940056}
        inSlope: {x: 0, y: 0, z: 0.36715078, w: -0.012695801}
        outSlope: {x: 0, y: 0, z: 0.36715078, w: -0.012695801}
        tangentMode: 0
      - serializedVersion: 2
        time: 0.61666673
        value: {x: 0, y: 0, z: 0.04067695, w: 0.99917233}
        inSlope: {x: 0, y: 0, z: 0.35590726, w: -0.014446392}
        outSlope: {x: 0, y: 0, z: 0.35590726, w: -0.014446392}
        tangentMode: 0
      - serializedVersion: 2
        time: 0.6333334
        value: {x: 0, y: 0, z: 0.046484005, w: 0.998919}
        inSlope: {x: 0, y: 0, z: 0.33722162, w: -0.015628353}
        outSlope: {x: 0, y: 0, z: 0.33722162, w: -0.015628353}
        tangentMode: 0
      - serializedVersion: 2
        time: 0.65000004
        value: {x: 0, y: 0, z: 0.05191766, w: 0.9986514}
        inSlope: {x: 0, y: 0, z: 0.31110436, w: -0.016095057}
        outSlope: {x: 0, y: 0, z: 0.31110436, w: -0.016095057}
        tangentMode: 0
      - serializedVersion: 2
        time: 0.6666667
        value: {x: 0, y: 0, z: 0.05685414, w: 0.9983825}
        inSlope: {x: 0, y: 0, z: 0.27756566, w: -0.015719548}
        outSlope: {x: 0, y: 0, z: 0.27756566, w: -0.015719548}
        tangentMode: 0
      - serializedVersion: 2
        time: 0.68333334
        value: {x: 0, y: 0, z: 0.06116984, w: 0.9981274}
        inSlope: {x: 0, y: 0, z: 0.23661521, w: -0.014412417}
        outSlope: {x: 0, y: 0, z: 0.23661521, w: -0.014412417}
        tangentMode: 0
      - serializedVersion: 2
        time: 0.7
        value: {x: 0, y: 0, z: 0.064741306, w: 0.9979021}
        inSlope: {x: 0, y: 0, z: 0.18825996, w: -0.012132537}
        outSlope: {x: 0, y: 0, z: 0.18825996, w: -0.012132537}
        tangentMode: 0
      - serializedVersion: 2
        time: 0.71666664
        value: {x: 0, y: 0, z: 0.06744517, w: 0.997723}
        inSlope: {x: 0, y: 0, z: 0.13250214, w: -0.008890637}
        outSlope: {x: 0, y: 0, z: 0.13250214, w: -0.008890637}
        tangentMode: 0
      - serializedVersion: 2
        time: 0.7333333
        value: {x: 0, y: 0, z: 0.06915804, w: 0.99760574}
        inSlope: {x: 0, y: 0, z: 0.06933919, w: -0.004767184}
        outSlope: {x: 0, y: 0, z: 0.06933919, w: -0.004767184}
        tangentMode: 0
      - serializedVersion: 2
        time: 0.74999994
        value: {x: 0, y: 0, z: 0.06975647, w: 0.9975641}
        inSlope: {x: 0, y: 0, z: -0.0070030317, w: 0.00048458623}
        outSlope: {x: 0, y: 0, z: -0.0070030317, w: 0.00048458623}
        tangentMode: 0
      - serializedVersion: 2
        time: 0.7666666
        value: {x: 0, y: 0, z: 0.068924606, w: 0.9976219}
        inSlope: {x: 0, y: 0, z: -0.09518878, w: 0.0065034693}
        outSlope: {x: 0, y: 0, z: -0.09518878, w: 0.0065034693}
        tangentMode: 0
      - serializedVersion: 2
        time: 0.78333324
        value: {x: 0, y: 0, z: 0.066583514, w: 0.99778086}
        inSlope: {x: 0, y: 0, z: -0.17879623, w: 0.011816036}
        outSlope: {x: 0, y: 0, z: -0.17879623, w: 0.011816036}
        tangentMode: 0
      - serializedVersion: 2
        time: 0.7999999
        value: {x: 0, y: 0, z: 0.06296474, w: 0.99801576}
        inSlope: {x: 0, y: 0, z: -0.24851339, w: 0.0155478865}
        outSlope: {x: 0, y: 0, z: -0.24851339, w: 0.0155478865}
        tangentMode: 0
      - serializedVersion: 2
        time: 0.81666654
        value: {x: 0, y: 0, z: 0.058299743, w: 0.9982991}
        inSlope: {x: 0, y: 0, z: -0.30433792, w: 0.017648952}
        outSlope: {x: 0, y: 0, z: -0.30433792, w: 0.017648952}
        tangentMode: 0
      - serializedVersion: 2
        time: 0.8333332
        value: {x: 0, y: 0, z: 0.05282015, w: 0.99860406}
        inSlope: {x: 0, y: 0, z: -0.34625787, w: 0.018214004}
        outSlope: {x: 0, y: 0, z: -0.34625787, w: 0.018214004}
        tangentMode: 0
      - serializedVersion: 2
        time: 0.84999985
        value: {x: 0, y: 0, z: 0.046757825, w: 0.99890625}
        inSlope: {x: 0, y: 0, z: -0.3742548, w: 0.017452257}
        outSlope: {x: 0, y: 0, z: -0.3742548, w: 0.017452257}
        tangentMode: 0
      - serializedVersion: 2
        time: 0.8666665
        value: {x: 0, y: 0, z: 0.040345002, w: 0.9991858}
        inSlope: {x: 0, y: 0, z: -0.38830835, w: 0.015656963}
        outSlope: {x: 0, y: 0, z: -0.38830835, w: 0.015656963}
        tangentMode: 0
      - serializedVersion: 2
        time: 0.88333315
        value: {x: 0, y: 0, z: 0.033814225, w: 0.99942815}
        inSlope: {x: 0, y: 0, z: -0.388401, w: 0.013164295}
        outSlope: {x: 0, y: 0, z: -0.388401, w: 0.013164295}
        tangentMode: 0
      - serializedVersion: 2
        time: 0.8999998
        value: {x: 0, y: 0, z: 0.027398314, w: 0.9996246}
        inSlope: {x: 0, y: 0, z: -0.37451932, w: 0.01033009}
        outSlope: {x: 0, y: 0, z: -0.37451932, w: 0.01033009}
        tangentMode: 0
      - serializedVersion: 2
        time: 0.91666645
        value: {x: 0, y: 0, z: 0.02133026, w: 0.9997725}
        inSlope: {x: 0, y: 0, z: -0.34665632, w: 0.0074958876}
        outSlope: {x: 0, y: 0, z: -0.34665632, w: 0.0074958876}
        tangentMode: 0
      - serializedVersion: 2
        time: 0.9333331
        value: {x: 0, y: 0, z: 0.015843114, w: 0.9998745}
        inSlope: {x: 0, y: 0, z: -0.3048099, w: 0.0049531506}
        outSlope: {x: 0, y: 0, z: -0.3048099, w: 0.0049531506}
        tangentMode: 0
      - serializedVersion: 2
        time: 0.94999975
        value: {x: 0, y: 0, z: 0.011169939, w: 0.9999376}
        inSlope: {x: 0, y: 0, z: -0.24898346, w: 0.0029128818}
        outSlope: {x: 0, y: 0, z: -0.24898346, w: 0.0029128818}
        tangentMode: 0
      - serializedVersion: 2
        time: 0.9666664
        value: {x: 0, y: 0, z: 0.0075436733, w: 0.99997157}
        inSlope: {x: 0, y: 0, z: -0.17918216, w: 0.0014662757}
        outSlope: {x: 0, y: 0, z: -0.17918216, w: 0.0014662757}
        tangentMode: 0
      - serializedVersion: 2
        time: 0.98333305
        value: {x: 0, y: 0, z: 0.0051972065, w: 0.99998647}
        inSlope: {x: 0, y: 0, z: -0.09541057, w: 0.0005668386}
        outSlope: {x: 0, y: 0, z: -0.09541057, w: 0.0005668386}
        tangentMode: 0
      - serializedVersion: 2
        time: 1
        value: {x: 0, y: 0, z: 0.004363309, w: 0.99999046}
        inSlope: {x: 0, y: 0, z: -0.050032996, w: 0.00023960661}
        outSlope: {x: 0, y: 0, z: -0.050032996, w: 0.00023960661}
        tangentMode: 0
      m_PreInfinity: 2
      m_PostInfinity: 2
      m_RotationOrder: 4
    path: 
  m_CompressedRotationCurves: []
  m_EulerCurves: []
  m_PositionCurves: []
  m_ScaleCurves: []
  m_FloatCurves: []
  m_PPtrCurves: []
  m_SampleRate: 60
  m_WrapMode: 1
  m_Bounds:
    m_Center: {x: 0, y: 0, z: 0}
    m_Extent: {x: 0, y: 0, z: 0}
  m_ClipBindingConstant:
    genericBindings: []
    pptrCurveMapping: []
  m_AnimationClipSettings:
    serializedVersion: 2
    m_AdditiveReferencePoseClip: {fileID: 0}
    m_AdditiveReferencePoseTime: 0
    m_StartTime: 0
    m_StopTime: 1
    m_OrientationOffsetY: 0
    m_Level: 0
    m_CycleOffset: 0
    m_HasAdditiveReferencePose: 0
    m_LoopTime: 1
    m_LoopBlend: 0
    m_LoopBlendOrientation: 0
    m_LoopBlendPositionY: 0
    m_LoopBlendPositionXZ: 0
    m_KeepOriginalOrientation: 0
    m_KeepOriginalPositionY: 1
    m_KeepOriginalPositionXZ: 0
    m_HeightFromFeet: 0
    m_Mirror: 0
  m_EditorCurves:
  - curve:
      serializedVersion: 2
      m_Curve:
      - serializedVersion: 2
        time: 0
        value: 0
        inSlope: 0
        outSlope: 0
        tangentMode: 0
      - serializedVersion: 2
        time: 0.016666668
        value: 0
        inSlope: 0
        outSlope: 0
        tangentMode: 0
      - serializedVersion: 2
        time: 0.033333335
        value: 0
        inSlope: 0
        outSlope: 0
        tangentMode: 0
      - serializedVersion: 2
        time: 0.050000004
        value: 0
        inSlope: 0
        outSlope: 0
        tangentMode: 0
      - serializedVersion: 2
        time: 0.06666667
        value: 0
        inSlope: 0
        outSlope: 0
        tangentMode: 0
      - serializedVersion: 2
        time: 0.083333336
        value: 0
        inSlope: 0
        outSlope: 0
        tangentMode: 0
      - serializedVersion: 2
        time: 0.1
        value: 0
        inSlope: 0
        outSlope: 0
        tangentMode: 0
      - serializedVersion: 2
        time: 0.11666667
        value: 0
        inSlope: 0
        outSlope: 0
        tangentMode: 0
      - serializedVersion: 2
        time: 0.13333334
        value: 0
        inSlope: 0
        outSlope: 0
        tangentMode: 0
      - serializedVersion: 2
        time: 0.15
        value: 0
        inSlope: 0
        outSlope: 0
        tangentMode: 0
      - serializedVersion: 2
        time: 0.16666667
        value: 0
        inSlope: 0
        outSlope: 0
        tangentMode: 0
      - serializedVersion: 2
        time: 0.18333334
        value: 0
        inSlope: 0
        outSlope: 0
        tangentMode: 0
      - serializedVersion: 2
        time: 0.2
        value: 0
        inSlope: 0
        outSlope: 0
        tangentMode: 0
      - serializedVersion: 2
        time: 0.21666667
        value: 0
        inSlope: 0
        outSlope: 0
        tangentMode: 0
      - serializedVersion: 2
        time: 0.23333333
        value: 0
        inSlope: 0
        outSlope: 0
        tangentMode: 0
      - serializedVersion: 2
        time: 0.25
        value: 0
        inSlope: 0
        outSlope: 0
        tangentMode: 0
      - serializedVersion: 2
        time: 0.26666668
        value: 0
        inSlope: 0
        outSlope: 0
        tangentMode: 0
      - serializedVersion: 2
        time: 0.28333336
        value: 0
        inSlope: 0
        outSlope: 0
        tangentMode: 0
      - serializedVersion: 2
        time: 0.30000004
        value: 0
        inSlope: 0
        outSlope: 0
        tangentMode: 0
      - serializedVersion: 2
        time: 0.31666672
        value: 0
        inSlope: 0
        outSlope: 0
        tangentMode: 0
      - serializedVersion: 2
        time: 0.3333334
        value: 0
        inSlope: 0
        outSlope: 0
        tangentMode: 0
      - serializedVersion: 2
        time: 0.35000008
        value: 0
        inSlope: 0
        outSlope: 0
        tangentMode: 0
      - serializedVersion: 2
        time: 0.36666676
        value: 0
        inSlope: 0
        outSlope: 0
        tangentMode: 0
      - serializedVersion: 2
        time: 0.38333344
        value: 0
        inSlope: 0
        outSlope: 0
        tangentMode: 0
      - serializedVersion: 2
        time: 0.40000013
        value: 0
        inSlope: 0
        outSlope: 0
        tangentMode: 0
      - serializedVersion: 2
        time: 0.4166668
        value: 0
        inSlope: 0
        outSlope: 0
        tangentMode: 0
      - serializedVersion: 2
        time: 0.4333335
        value: 0
        inSlope: 0
        outSlope: 0
        tangentMode: 0
      - serializedVersion: 2
        time: 0.45000017
        value: 0
        inSlope: 0
        outSlope: 0
        tangentMode: 0
      - serializedVersion: 2
        time: 0.46666685
        value: 0
        inSlope: 0
        outSlope: 0
        tangentMode: 0
      - serializedVersion: 2
        time: 0.48333353
        value: 0
        inSlope: 0
        outSlope: 0
        tangentMode: 0
      - serializedVersion: 2
        time: 0.5000002
        value: 0
        inSlope: 0
        outSlope: 0
        tangentMode: 0
      - serializedVersion: 2
        time: 0.5166668
        value: 0
        inSlope: 0
        outSlope: 0
        tangentMode: 0
      - serializedVersion: 2
        time: 0.5333335
        value: 0
        inSlope: 0
        outSlope: 0
        tangentMode: 0
      - serializedVersion: 2
        time: 0.55000013
        value: 0
        inSlope: 0
        outSlope: 0
        tangentMode: 0
      - serializedVersion: 2
        time: 0.5666668
        value: 0
        inSlope: 0
        outSlope: 0
        tangentMode: 0
      - serializedVersion: 2
        time: 0.58333343
        value: 0
        inSlope: 0
        outSlope: 0
        tangentMode: 0
      - serializedVersion: 2
        time: 0.6000001
        value: 0
        inSlope: 0
        outSlope: 0
        tangentMode: 0
      - serializedVersion: 2
        time: 0.61666673
        value: 0
        inSlope: 0
        outSlope: 0
        tangentMode: 0
      - serializedVersion: 2
        time: 0.6333334
        value: 0
        inSlope: 0
        outSlope: 0
        tangentMode: 0
      - serializedVersion: 2
        time: 0.65000004
        value: 0
        inSlope: 0
        outSlope: 0
        tangentMode: 0
      - serializedVersion: 2
        time: 0.6666667
        value: 0
        inSlope: 0
        outSlope: 0
        tangentMode: 0
      - serializedVersion: 2
        time: 0.68333334
        value: 0
        inSlope: 0
        outSlope: 0
        tangentMode: 0
      - serializedVersion: 2
        time: 0.7
        value: 0
        inSlope: 0
        outSlope: 0
        tangentMode: 0
      - serializedVersion: 2
        time: 0.71666664
        value: 0
        inSlope: 0
        outSlope: 0
        tangentMode: 0
      - serializedVersion: 2
        time: 0.7333333
        value: 0
        inSlope: 0
        outSlope: 0
        tangentMode: 0
      - serializedVersion: 2
        time: 0.74999994
        value: 0
        inSlope: 0
        outSlope: 0
        tangentMode: 0
      - serializedVersion: 2
        time: 0.7666666
        value: 0
        inSlope: 0
        outSlope: 0
        tangentMode: 0
      - serializedVersion: 2
        time: 0.78333324
        value: 0
        inSlope: 0
        outSlope: 0
        tangentMode: 0
      - serializedVersion: 2
        time: 0.7999999
        value: 0
        inSlope: 0
        outSlope: 0
        tangentMode: 0
      - serializedVersion: 2
        time: 0.81666654
        value: 0
        inSlope: 0
        outSlope: 0
        tangentMode: 0
      - serializedVersion: 2
        time: 0.8333332
        value: 0
        inSlope: 0
        outSlope: 0
        tangentMode: 0
      - serializedVersion: 2
        time: 0.84999985
        value: 0
        inSlope: 0
        outSlope: 0
        tangentMode: 0
      - serializedVersion: 2
        time: 0.8666665
        value: 0
        inSlope: 0
        outSlope: 0
        tangentMode: 0
      - serializedVersion: 2
        time: 0.88333315
        value: 0
        inSlope: 0
        outSlope: 0
        tangentMode: 0
      - serializedVersion: 2
        time: 0.8999998
        value: 0
        inSlope: 0
        outSlope: 0
        tangentMode: 0
      - serializedVersion: 2
        time: 0.91666645
        value: 0
        inSlope: 0
        outSlope: 0
        tangentMode: 0
      - serializedVersion: 2
        time: 0.9333331
        value: 0
        inSlope: 0
        outSlope: 0
        tangentMode: 0
      - serializedVersion: 2
        time: 0.94999975
        value: 0
        inSlope: 0
        outSlope: 0
        tangentMode: 0
      - serializedVersion: 2
        time: 0.9666664
        value: 0
        inSlope: 0
        outSlope: 0
        tangentMode: 0
      - serializedVersion: 2
        time: 0.98333305
        value: 0
        inSlope: 0
        outSlope: 0
        tangentMode: 0
      - serializedVersion: 2
        time: 1
        value: 0
        inSlope: 0
        outSlope: 0
        tangentMode: 0
      m_PreInfinity: 2
      m_PostInfinity: 2
      m_RotationOrder: 4
    attribute: m_LocalRotation.x
    path: 
    classID: 224
    script: {fileID: 0}
  - curve:
      serializedVersion: 2
      m_Curve:
      - serializedVersion: 2
        time: 0
        value: 0
        inSlope: 0
        outSlope: 0
        tangentMode: 0
      - serializedVersion: 2
        time: 0.016666668
        value: 0
        inSlope: 0
        outSlope: 0
        tangentMode: 0
      - serializedVersion: 2
        time: 0.033333335
        value: 0
        inSlope: 0
        outSlope: 0
        tangentMode: 0
      - serializedVersion: 2
        time: 0.050000004
        value: 0
        inSlope: 0
        outSlope: 0
        tangentMode: 0
      - serializedVersion: 2
        time: 0.06666667
        value: 0
        inSlope: 0
        outSlope: 0
        tangentMode: 0
      - serializedVersion: 2
        time: 0.083333336
        value: 0
        inSlope: 0
        outSlope: 0
        tangentMode: 0
      - serializedVersion: 2
        time: 0.1
        value: 0
        inSlope: 0
        outSlope: 0
        tangentMode: 0
      - serializedVersion: 2
        time: 0.11666667
        value: 0
        inSlope: 0
        outSlope: 0
        tangentMode: 0
      - serializedVersion: 2
        time: 0.13333334
        value: 0
        inSlope: 0
        outSlope: 0
        tangentMode: 0
      - serializedVersion: 2
        time: 0.15
        value: 0
        inSlope: 0
        outSlope: 0
        tangentMode: 0
      - serializedVersion: 2
        time: 0.16666667
        value: 0
        inSlope: 0
        outSlope: 0
        tangentMode: 0
      - serializedVersion: 2
        time: 0.18333334
        value: 0
        inSlope: 0
        outSlope: 0
        tangentMode: 0
      - serializedVersion: 2
        time: 0.2
        value: 0
        inSlope: 0
        outSlope: 0
        tangentMode: 0
      - serializedVersion: 2
        time: 0.21666667
        value: 0
        inSlope: 0
        outSlope: 0
        tangentMode: 0
      - serializedVersion: 2
        time: 0.23333333
        value: 0
        inSlope: 0
        outSlope: 0
        tangentMode: 0
      - serializedVersion: 2
        time: 0.25
        value: 0
        inSlope: 0
        outSlope: 0
        tangentMode: 0
      - serializedVersion: 2
        time: 0.26666668
        value: 0
        inSlope: 0
        outSlope: 0
        tangentMode: 0
      - serializedVersion: 2
        time: 0.28333336
        value: 0
        inSlope: 0
        outSlope: 0
        tangentMode: 0
      - serializedVersion: 2
        time: 0.30000004
        value: 0
        inSlope: 0
        outSlope: 0
        tangentMode: 0
      - serializedVersion: 2
        time: 0.31666672
        value: 0
        inSlope: 0
        outSlope: 0
        tangentMode: 0
      - serializedVersion: 2
        time: 0.3333334
        value: 0
        inSlope: 0
        outSlope: 0
        tangentMode: 0
      - serializedVersion: 2
        time: 0.35000008
        value: 0
        inSlope: 0
        outSlope: 0
        tangentMode: 0
      - serializedVersion: 2
        time: 0.36666676
        value: 0
        inSlope: 0
        outSlope: 0
        tangentMode: 0
      - serializedVersion: 2
        time: 0.38333344
        value: 0
        inSlope: 0
        outSlope: 0
        tangentMode: 0
      - serializedVersion: 2
        time: 0.40000013
        value: 0
        inSlope: 0
        outSlope: 0
        tangentMode: 0
      - serializedVersion: 2
        time: 0.4166668
        value: 0
        inSlope: 0
        outSlope: 0
        tangentMode: 0
      - serializedVersion: 2
        time: 0.4333335
        value: 0
        inSlope: 0
        outSlope: 0
        tangentMode: 0
      - serializedVersion: 2
        time: 0.45000017
        value: 0
        inSlope: 0
        outSlope: 0
        tangentMode: 0
      - serializedVersion: 2
        time: 0.46666685
        value: 0
        inSlope: 0
        outSlope: 0
        tangentMode: 0
      - serializedVersion: 2
        time: 0.48333353
        value: 0
        inSlope: 0
        outSlope: 0
        tangentMode: 0
      - serializedVersion: 2
        time: 0.5000002
        value: 0
        inSlope: 0
        outSlope: 0
        tangentMode: 0
      - serializedVersion: 2
        time: 0.5166668
        value: 0
        inSlope: 0
        outSlope: 0
        tangentMode: 0
      - serializedVersion: 2
        time: 0.5333335
        value: 0
        inSlope: 0
        outSlope: 0
        tangentMode: 0
      - serializedVersion: 2
        time: 0.55000013
        value: 0
        inSlope: 0
        outSlope: 0
        tangentMode: 0
      - serializedVersion: 2
        time: 0.5666668
        value: 0
        inSlope: 0
        outSlope: 0
        tangentMode: 0
      - serializedVersion: 2
        time: 0.58333343
        value: 0
        inSlope: 0
        outSlope: 0
        tangentMode: 0
      - serializedVersion: 2
        time: 0.6000001
        value: 0
        inSlope: 0
        outSlope: 0
        tangentMode: 0
      - serializedVersion: 2
        time: 0.61666673
        value: 0
        inSlope: 0
        outSlope: 0
        tangentMode: 0
      - serializedVersion: 2
        time: 0.6333334
        value: 0
        inSlope: 0
        outSlope: 0
        tangentMode: 0
      - serializedVersion: 2
        time: 0.65000004
        value: 0
        inSlope: 0
        outSlope: 0
        tangentMode: 0
      - serializedVersion: 2
        time: 0.6666667
        value: 0
        inSlope: 0
        outSlope: 0
        tangentMode: 0
      - serializedVersion: 2
        time: 0.68333334
        value: 0
        inSlope: 0
        outSlope: 0
        tangentMode: 0
      - serializedVersion: 2
        time: 0.7
        value: 0
        inSlope: 0
        outSlope: 0
        tangentMode: 0
      - serializedVersion: 2
        time: 0.71666664
        value: 0
        inSlope: 0
        outSlope: 0
        tangentMode: 0
      - serializedVersion: 2
        time: 0.7333333
        value: 0
        inSlope: 0
        outSlope: 0
        tangentMode: 0
      - serializedVersion: 2
        time: 0.74999994
        value: 0
        inSlope: 0
        outSlope: 0
        tangentMode: 0
      - serializedVersion: 2
        time: 0.7666666
        value: 0
        inSlope: 0
        outSlope: 0
        tangentMode: 0
      - serializedVersion: 2
        time: 0.78333324
        value: 0
        inSlope: 0
        outSlope: 0
        tangentMode: 0
      - serializedVersion: 2
        time: 0.7999999
        value: 0
        inSlope: 0
        outSlope: 0
        tangentMode: 0
      - serializedVersion: 2
        time: 0.81666654
        value: 0
        inSlope: 0
        outSlope: 0
        tangentMode: 0
      - serializedVersion: 2
        time: 0.8333332
        value: 0
        inSlope: 0
        outSlope: 0
        tangentMode: 0
      - serializedVersion: 2
        time: 0.84999985
        value: 0
        inSlope: 0
        outSlope: 0
        tangentMode: 0
      - serializedVersion: 2
        time: 0.8666665
        value: 0
        inSlope: 0
        outSlope: 0
        tangentMode: 0
      - serializedVersion: 2
        time: 0.88333315
        value: 0
        inSlope: 0
        outSlope: 0
        tangentMode: 0
      - serializedVersion: 2
        time: 0.8999998
        value: 0
        inSlope: 0
        outSlope: 0
        tangentMode: 0
      - serializedVersion: 2
        time: 0.91666645
        value: 0
        inSlope: 0
        outSlope: 0
        tangentMode: 0
      - serializedVersion: 2
        time: 0.9333331
        value: 0
        inSlope: 0
        outSlope: 0
        tangentMode: 0
      - serializedVersion: 2
        time: 0.94999975
        value: 0
        inSlope: 0
        outSlope: 0
        tangentMode: 0
      - serializedVersion: 2
        time: 0.9666664
        value: 0
        inSlope: 0
        outSlope: 0
        tangentMode: 0
      - serializedVersion: 2
        time: 0.98333305
        value: 0
        inSlope: 0
        outSlope: 0
        tangentMode: 0
      - serializedVersion: 2
        time: 1
        value: 0
        inSlope: 0
        outSlope: 0
        tangentMode: 0
      m_PreInfinity: 2
      m_PostInfinity: 2
      m_RotationOrder: 4
    attribute: m_LocalRotation.y
    path: 
    classID: 224
    script: {fileID: 0}
  - curve:
      serializedVersion: 2
      m_Curve:
      - serializedVersion: 2
        time: 0
        value: 0
        inSlope: -0.053368285
        outSlope: -0.053368285
        tangentMode: 0
      - serializedVersion: 2
        time: 0.016666668
        value: -0.00088947144
        inSlope: -0.1017719
        outSlope: -0.1017719
        tangentMode: 0
      - serializedVersion: 2
        time: 0.033333335
        value: -0.0033923967
        inSlope: -0.19113106
        outSlope: -0.19113106
        tangentMode: 0
      - serializedVersion: 2
        time: 0.050000004
        value: -0.007260507
        inSlope: -0.26559138
        outSlope: -0.26559138
        tangentMode: 0
      - serializedVersion: 2
        time: 0.06666667
        value: -0.012245443
        inSlope: -0.3251465
        outSlope: -0.3251465
        tangentMode: 0
      - serializedVersion: 2
        time: 0.083333336
        value: -0.018098723
        inSlope: -0.36978966
        outSlope: -0.36978966
        tangentMode: 0
      - serializedVersion: 2
        time: 0.1
        value: -0.024571763
        inSlope: -0.39951605
        outSlope: -0.39951605
        tangentMode: 0
      - serializedVersion: 2
        time: 0.11666667
        value: -0.031415924
        inSlope: -0.4143263
        outSlope: -0.4143263
        tangentMode: 0
      - serializedVersion: 2
        time: 0.13333334
        value: -0.038382642
        inSlope: -0.41422743
        outSlope: -0.41422743
        tangentMode: 0
      - serializedVersion: 2
        time: 0.15
        value: -0.045223508
        inSlope: -0.3992333
        outSlope: -0.3992333
        tangentMode: 0
      - serializedVersion: 2
        time: 0.16666667
        value: -0.05169042
        inSlope: -0.36936378
        outSlope: -0.36936378
        tangentMode: 0
      - serializedVersion: 2
        time: 0.18333334
        value: -0.057535633
        inSlope: -0.32464197
        outSlope: -0.32464197
        tangentMode: 0
      - serializedVersion: 2
        time: 0.2
        value: -0.06251182
        inSlope: -0.265089
        outSlope: -0.265089
        tangentMode: 0
      - serializedVersion: 2
        time: 0.21666667
        value: -0.06637193
        inSlope: -0.1907196
        outSlope: -0.1907196
        tangentMode: 0
      - serializedVersion: 2
        time: 0.23333333
        value: -0.068869136
        inSlope: -0.10153615
        outSlope: -0.10153615
        tangentMode: 0
      - serializedVersion: 2
        time: 0.25
        value: -0.06975647
        inSlope: -0.008667352
        outSlope: -0.008667352
        tangentMode: 0
      - serializedVersion: 2
        time: 0.26666668
        value: -0.06915805
        inSlope: 0.06933907
        outSlope: 0.06933907
        tangentMode: 0
      - serializedVersion: 2
        time: 0.28333336
        value: -0.06744517
        inSlope: 0.13250235
        outSlope: 0.13250235
        tangentMode: 0
      - serializedVersion: 2
        time: 0.30000004
        value: -0.0647413
        inSlope: 0.18825996
        outSlope: 0.18825996
        tangentMode: 0
      - serializedVersion: 2
        time: 0.31666672
        value: -0.06116983
        inSlope: 0.23661533
        outSlope: 0.23661533
        tangentMode: 0
      - serializedVersion: 2
        time: 0.3333334
        value: -0.056854114
        inSlope: 0.27756605
        outSlope: 0.27756605
        tangentMode: 0
      - serializedVersion: 2
        time: 0.35000008
        value: -0.05191762
        inSlope: 0.3111047
        outSlope: 0.3111047
        tangentMode: 0
      - serializedVersion: 2
        time: 0.36666676
        value: -0.04648395
        inSlope: 0.3372218
        outSlope: 0.3372218
        tangentMode: 0
      - serializedVersion: 2
        time: 0.38333344
        value: -0.040676884
        inSlope: 0.35590714
        outSlope: 0.35590714
        tangentMode: 0
      - serializedVersion: 2
        time: 0.40000013
        value: -0.034620367
        inSlope: 0.3671507
        outSlope: 0.3671507
        tangentMode: 0
      - serializedVersion: 2
        time: 0.4166668
        value: -0.028438518
        inSlope: 0.37094343
        outSlope: 0.37094343
        tangentMode: 0
      - serializedVersion: 2
        time: 0.4333335
        value: -0.022255575
        inSlope: 0.36727855
        outSlope: 0.36727855
        tangentMode: 0
      - serializedVersion: 2
        time: 0.45000017
        value: -0.01619589
        inSlope: 0.3561526
        outSlope: 0.3561526
        tangentMode: 0
      - serializedVersion: 2
        time: 0.46666685
        value: -0.010383812
        inSlope: 0.3375646
        outSlope: 0.3375646
        tangentMode: 0
      - serializedVersion: 2
        time: 0.48333353
        value: -0.0049437266
        inSlope: 0.31151587
        outSlope: 0.31151587
        tangentMode: 0
      - serializedVersion: 2
        time: 0.5000002
        value: 0.000000049934307
        inSlope: 0.29662722
        outSlope: 0.29662722
        tangentMode: 0
      - serializedVersion: 2
        time: 0.5166668
        value: 0.004943838
        inSlope: 0.31151658
        outSlope: 0.31151658
        tangentMode: 0
      - serializedVersion: 2
        time: 0.5333335
        value: 0.010383926
        inSlope: 0.33756506
        outSlope: 0.33756506
        tangentMode: 0
      - serializedVersion: 2
        time: 0.55000013
        value: 0.016195996
        inSlope: 0.3561529
        outSlope: 0.3561529
        tangentMode: 0
      - serializedVersion: 2
        time: 0.5666668
        value: 0.022255678
        inSlope: 0.36727858
        outSlope: 0.36727858
        tangentMode: 0
      - serializedVersion: 2
        time: 0.58333343
        value: 0.028438604
        inSlope: 0.37094328
        outSlope: 0.37094328
        tangentMode: 0
      - serializedVersion: 2
        time: 0.6000001
        value: 0.03462044
        inSlope: 0.36715078
        outSlope: 0.36715078
        tangentMode: 0
      - serializedVersion: 2
        time: 0.61666673
        value: 0.04067695
        inSlope: 0.35590726
        outSlope: 0.35590726
        tangentMode: 0
      - serializedVersion: 2
        time: 0.6333334
        value: 0.046484005
        inSlope: 0.33722162
        outSlope: 0.33722162
        tangentMode: 0
      - serializedVersion: 2
        time: 0.65000004
        value: 0.05191766
        inSlope: 0.31110436
        outSlope: 0.31110436
        tangentMode: 0
      - serializedVersion: 2
        time: 0.6666667
        value: 0.05685414
        inSlope: 0.27756566
        outSlope: 0.27756566
        tangentMode: 0
      - serializedVersion: 2
        time: 0.68333334
        value: 0.06116984
        inSlope: 0.23661521
        outSlope: 0.23661521
        tangentMode: 0
      - serializedVersion: 2
        time: 0.7
        value: 0.064741306
        inSlope: 0.18825996
        outSlope: 0.18825996
        tangentMode: 0
      - serializedVersion: 2
        time: 0.71666664
        value: 0.06744517
        inSlope: 0.13250214
        outSlope: 0.13250214
        tangentMode: 0
      - serializedVersion: 2
        time: 0.7333333
        value: 0.06915804
        inSlope: 0.06933919
        outSlope: 0.06933919
        tangentMode: 0
      - serializedVersion: 2
        time: 0.74999994
        value: 0.06975647
        inSlope: -0.0070030317
        outSlope: -0.0070030317
        tangentMode: 0
      - serializedVersion: 2
        time: 0.7666666
        value: 0.068924606
        inSlope: -0.09518878
        outSlope: -0.09518878
        tangentMode: 0
      - serializedVersion: 2
        time: 0.78333324
        value: 0.066583514
        inSlope: -0.17879623
        outSlope: -0.17879623
        tangentMode: 0
      - serializedVersion: 2
        time: 0.7999999
        value: 0.06296474
        inSlope: -0.24851339
        outSlope: -0.24851339
        tangentMode: 0
      - serializedVersion: 2
        time: 0.81666654
        value: 0.058299743
        inSlope: -0.30433792
        outSlope: -0.30433792
        tangentMode: 0
      - serializedVersion: 2
        time: 0.8333332
        value: 0.05282015
        inSlope: -0.34625787
        outSlope: -0.34625787
        tangentMode: 0
      - serializedVersion: 2
        time: 0.84999985
        value: 0.046757825
        inSlope: -0.3742548
        outSlope: -0.3742548
        tangentMode: 0
      - serializedVersion: 2
        time: 0.8666665
        value: 0.040345002
        inSlope: -0.38830835
        outSlope: -0.38830835
        tangentMode: 0
      - serializedVersion: 2
        time: 0.88333315
        value: 0.033814225
        inSlope: -0.388401
        outSlope: -0.388401
        tangentMode: 0
      - serializedVersion: 2
        time: 0.8999998
        value: 0.027398314
        inSlope: -0.37451932
        outSlope: -0.37451932
        tangentMode: 0
      - serializedVersion: 2
        time: 0.91666645
        value: 0.02133026
        inSlope: -0.34665632
        outSlope: -0.34665632
        tangentMode: 0
      - serializedVersion: 2
        time: 0.9333331
        value: 0.015843114
        inSlope: -0.3048099
        outSlope: -0.3048099
        tangentMode: 0
      - serializedVersion: 2
        time: 0.94999975
        value: 0.011169939
        inSlope: -0.24898346
        outSlope: -0.24898346
        tangentMode: 0
      - serializedVersion: 2
        time: 0.9666664
        value: 0.0075436733
        inSlope: -0.17918216
        outSlope: -0.17918216
        tangentMode: 0
      - serializedVersion: 2
        time: 0.98333305
        value: 0.0051972065
        inSlope: -0.09541057
        outSlope: -0.09541057
        tangentMode: 0
      - serializedVersion: 2
        time: 1
        value: 0.004363309
        inSlope: -0.050032996
        outSlope: -0.050032996
        tangentMode: 0
      m_PreInfinity: 2
      m_PostInfinity: 2
      m_RotationOrder: 4
    attribute: m_LocalRotation.z
    path: 
    classID: 224
    script: {fileID: 0}
  - curve:
      serializedVersion: 2
      m_Curve:
      - serializedVersion: 2
        time: 0
        value: 1
        inSlope: -0.000025033949
        outSlope: -0.000025033949
        tangentMode: 0
      - serializedVersion: 2
        time: 0.016666668
        value: 0.9999996
        inSlope: -0.0001734495
        outSlope: -0.0001734495
        tangentMode: 0
      - serializedVersion: 2
        time: 0.033333335
        value: 0.9999942
        inSlope: -0.0007778405
        outSlope: -0.0007778405
        tangentMode: 0
      - serializedVersion: 2
        time: 0.050000004
        value: 0.99997365
        inSlope: -0.0020760298
        outSlope: -0.0020760298
        tangentMode: 0
      - serializedVersion: 2
        time: 0.06666667
        value: 0.999925
        inSlope: -0.00412345
        outSlope: -0.00412345
        tangentMode: 0
      - serializedVersion: 2
        time: 0.083333336
        value: 0.9998362
        inSlope: -0.0068092356
        outSlope: -0.0068092356
        tangentMode: 0
      - serializedVersion: 2
        time: 0.1
        value: 0.99969804
        inSlope: -0.009893776
        outSlope: -0.009893776
        tangentMode: 0
      - serializedVersion: 2
        time: 0.11666667
        value: 0.9995064
        inSlope: -0.013048051
        outSlope: -0.013048051
        tangentMode: 0
      - serializedVersion: 2
        time: 0.13333334
        value: 0.9992631
        inSlope: -0.015885828
        outSlope: -0.015885828
        tangentMode: 0
      - serializedVersion: 2
        time: 0.15
        value: 0.9989769
        inSlope: -0.017999412
        outSlope: -0.017999412
        tangentMode: 0
      - serializedVersion: 2
        time: 0.16666667
        value: 0.9986631
        inSlope: -0.019002559
        outSlope: -0.019002559
        tangentMode: 0
      - serializedVersion: 2
        time: 0.18333334
        value: 0.99834347
        inSlope: -0.018566253
        outSlope: -0.018566253
        tangentMode: 0
      - serializedVersion: 2
        time: 0.2
        value: 0.99804425
        inSlope: -0.016456248
        outSlope: -0.016456248
        tangentMode: 0
      - serializedVersion: 2
        time: 0.21666667
        value: 0.9977949
        inSlope: -0.012556315
        outSlope: -0.012556315
        tangentMode: 0
      - serializedVersion: 2
        time: 0.23333333
        value: 0.9976257
        inSlope: -0.006925464
        outSlope: -0.006925464
        tangentMode: 0
      - serializedVersion: 2
        time: 0.25
        value: 0.9975641
        inSlope: -0.00059902784
        outSlope: -0.00059902784
        tangentMode: 0
      - serializedVersion: 2
        time: 0.26666668
        value: 0.99760574
        inSlope: 0.0047671753
        outSlope: 0.0047671753
        tangentMode: 0
      - serializedVersion: 2
        time: 0.28333336
        value: 0.997723
        inSlope: 0.008890621
        outSlope: 0.008890621
        tangentMode: 0
      - serializedVersion: 2
        time: 0.30000004
        value: 0.9979021
        inSlope: 0.012132515
        outSlope: 0.012132515
        tangentMode: 0
      - serializedVersion: 2
        time: 0.31666672
        value: 0.9981274
        inSlope: 0.014412391
        outSlope: 0.014412391
        tangentMode: 0
      - serializedVersion: 2
        time: 0.3333334
        value: 0.9983825
        inSlope: 0.01571952
        outSlope: 0.01571952
        tangentMode: 0
      - serializedVersion: 2
        time: 0.35000008
        value: 0.9986514
        inSlope: 0.01609503
        outSlope: 0.01609503
        tangentMode: 0
      - serializedVersion: 2
        time: 0.36666676
        value: 0.998919
        inSlope: 0.015628325
        outSlope: 0.015628325
        tangentMode: 0
      - serializedVersion: 2
        time: 0.38333344
        value: 0.99917233
        inSlope: 0.014446366
        outSlope: 0.014446366
        tangentMode: 0
      - serializedVersion: 2
        time: 0.40000013
        value: 0.99940056
        inSlope: 0.012695779
        outSlope: 0.012695779
        tangentMode: 0
      - serializedVersion: 2
        time: 0.4166668
        value: 0.9995955
        inSlope: 0.01055359
        outSlope: 0.01055359
        tangentMode: 0
      - serializedVersion: 2
        time: 0.4333335
        value: 0.99975234
        inSlope: 0.008198612
        outSlope: 0.008198612
        tangentMode: 0
      - serializedVersion: 2
        time: 0.45000017
        value: 0.9998688
        inSlope: 0.005811448
        outSlope: 0.005811448
        tangentMode: 0
      - serializedVersion: 2
        time: 0.46666685
        value: 0.99994606
        inSlope: 0.0035691233
        outSlope: 0.0035691233
        tangentMode: 0
      - serializedVersion: 2
        time: 0.48333353
        value: 0.9999878
        inSlope: 0.0016182654
        outSlope: 0.0016182654
        tangentMode: 0
      - serializedVersion: 2
        time: 0.5000002
        value: 1
        inSlope: 0
        outSlope: 0
        tangentMode: 0
      - serializedVersion: 2
        time: 0.5166668
        value: 0.9999878
        inSlope: -0.0016182676
        outSlope: -0.0016182676
        tangentMode: 0
      - serializedVersion: 2
        time: 0.5333335
        value: 0.99994606
        inSlope: -0.0035691294
        outSlope: -0.0035691294
        tangentMode: 0
      - serializedVersion: 2
        time: 0.55000013
        value: 0.9998688
        inSlope: -0.0058132466
        outSlope: -0.0058132466
        tangentMode: 0
      - serializedVersion: 2
        time: 0.5666668
        value: 0.9997523
        inSlope: -0.008198626
        outSlope: -0.008198626
        tangentMode: 0
      - serializedVersion: 2
        time: 0.58333343
        value: 0.9995955
        inSlope: -0.0105518205
        outSlope: -0.0105518205
        tangentMode: 0
      - serializedVersion: 2
        time: 0.6000001
        value: 0.99940056
        inSlope: -0.012695801
        outSlope: -0.012695801
        tangentMode: 0
      - serializedVersion: 2
        time: 0.61666673
        value: 0.99917233
        inSlope: -0.014446392
        outSlope: -0.014446392
        tangentMode: 0
      - serializedVersion: 2
        time: 0.6333334
        value: 0.998919
        inSlope: -0.015628353
        outSlope: -0.015628353
        tangentMode: 0
      - serializedVersion: 2
        time: 0.65000004
        value: 0.9986514
        inSlope: -0.016095057
        outSlope: -0.016095057
        tangentMode: 0
      - serializedVersion: 2
        time: 0.6666667
        value: 0.9983825
        inSlope: -0.015719548
        outSlope: -0.015719548
        tangentMode: 0
      - serializedVersion: 2
        time: 0.68333334
        value: 0.9981274
        inSlope: -0.014412417
        outSlope: -0.014412417
        tangentMode: 0
      - serializedVersion: 2
        time: 0.7
        value: 0.9979021
        inSlope: -0.012132537
        outSlope: -0.012132537
        tangentMode: 0
      - serializedVersion: 2
        time: 0.71666664
        value: 0.997723
        inSlope: -0.008890637
        outSlope: -0.008890637
        tangentMode: 0
      - serializedVersion: 2
        time: 0.7333333
        value: 0.99760574
        inSlope: -0.004767184
        outSlope: -0.004767184
        tangentMode: 0
      - serializedVersion: 2
        time: 0.74999994
        value: 0.9975641
        inSlope: 0.00048458623
        outSlope: 0.00048458623
        tangentMode: 0
      - serializedVersion: 2
        time: 0.7666666
        value: 0.9976219
        inSlope: 0.0065034693
        outSlope: 0.0065034693
        tangentMode: 0
      - serializedVersion: 2
        time: 0.78333324
        value: 0.99778086
        inSlope: 0.011816036
        outSlope: 0.011816036
        tangentMode: 0
      - serializedVersion: 2
        time: 0.7999999
        value: 0.99801576
        inSlope: 0.0155478865
        outSlope: 0.0155478865
        tangentMode: 0
      - serializedVersion: 2
        time: 0.81666654
        value: 0.9982991
        inSlope: 0.017648952
        outSlope: 0.017648952
        tangentMode: 0
      - serializedVersion: 2
        time: 0.8333332
        value: 0.99860406
        inSlope: 0.018214004
        outSlope: 0.018214004
        tangentMode: 0
      - serializedVersion: 2
        time: 0.84999985
        value: 0.99890625
        inSlope: 0.017452257
        outSlope: 0.017452257
        tangentMode: 0
      - serializedVersion: 2
        time: 0.8666665
        value: 0.9991858
        inSlope: 0.015656963
        outSlope: 0.015656963
        tangentMode: 0
      - serializedVersion: 2
        time: 0.88333315
        value: 0.99942815
        inSlope: 0.013164295
        outSlope: 0.013164295
        tangentMode: 0
      - serializedVersion: 2
        time: 0.8999998
        value: 0.9996246
        inSlope: 0.01033009
        outSlope: 0.01033009
        tangentMode: 0
      - serializedVersion: 2
        time: 0.91666645
        value: 0.9997725
        inSlope: 0.0074958876
        outSlope: 0.0074958876
        tangentMode: 0
      - serializedVersion: 2
        time: 0.9333331
        value: 0.9998745
        inSlope: 0.0049531506
        outSlope: 0.0049531506
        tangentMode: 0
      - serializedVersion: 2
        time: 0.94999975
        value: 0.9999376
        inSlope: 0.0029128818
        outSlope: 0.0029128818
        tangentMode: 0
      - serializedVersion: 2
        time: 0.9666664
        value: 0.99997157
        inSlope: 0.0014662757
        outSlope: 0.0014662757
        tangentMode: 0
      - serializedVersion: 2
        time: 0.98333305
        value: 0.99998647
        inSlope: 0.0005668386
        outSlope: 0.0005668386
        tangentMode: 0
      - serializedVersion: 2
        time: 1
        value: 0.99999046
        inSlope: 0.00023960661
        outSlope: 0.00023960661
        tangentMode: 0
      m_PreInfinity: 2
      m_PostInfinity: 2
      m_RotationOrder: 4
    attribute: m_LocalRotation.w
    path: 
    classID: 224
    script: {fileID: 0}
  m_EulerEditorCurves:
  - curve:
      serializedVersion: 2
      m_Curve:
      - serializedVersion: 2
        time: 0
        value: 0
        inSlope: 0
        outSlope: 0
        tangentMode: 136
      - serializedVersion: 2
        time: 0.25
        value: 0
        inSlope: 0
        outSlope: 0
        tangentMode: 136
      - serializedVersion: 2
        time: 0.5
        value: 0
        inSlope: 0
        outSlope: 0
        tangentMode: 136
      - serializedVersion: 2
        time: 0.75
        value: 0
        inSlope: 0
        outSlope: 0
        tangentMode: 136
      - serializedVersion: 2
        time: 1
        value: 0
        inSlope: 0
        outSlope: 0
        tangentMode: 136
      m_PreInfinity: 2
      m_PostInfinity: 2
      m_RotationOrder: 4
    attribute: localEulerAnglesBaked.x
    path: 
    classID: 224
    script: {fileID: 0}
  - curve:
      serializedVersion: 2
      m_Curve:
      - serializedVersion: 2
        time: 0
        value: 0
        inSlope: 0
        outSlope: 0
        tangentMode: 136
      - serializedVersion: 2
        time: 0.25
        value: 0
        inSlope: 0
        outSlope: 0
        tangentMode: 136
      - serializedVersion: 2
        time: 0.5
        value: 0
        inSlope: 0
        outSlope: 0
        tangentMode: 136
      - serializedVersion: 2
        time: 0.75
        value: 0
        inSlope: 0
        outSlope: 0
        tangentMode: 136
      - serializedVersion: 2
        time: 1
        value: 0
        inSlope: 0
        outSlope: 0
        tangentMode: 136
      m_PreInfinity: 2
      m_PostInfinity: 2
      m_RotationOrder: 4
    attribute: localEulerAnglesBaked.y
    path: 
    classID: 224
    script: {fileID: 0}
  - curve:
      serializedVersion: 2
      m_Curve:
      - serializedVersion: 2
        time: 0
        value: 0
        inSlope: 0
        outSlope: 0
        tangentMode: 136
      - serializedVersion: 2
        time: 0.25
        value: -8
        inSlope: 0
        outSlope: 0
        tangentMode: 136
      - serializedVersion: 2
        time: 0.5
        value: 0
        inSlope: 32
        outSlope: 32
        tangentMode: 136
      - serializedVersion: 2
        time: 0.75
        value: 8
        inSlope: 0
        outSlope: 0
        tangentMode: 136
      - serializedVersion: 2
        time: 1
        value: 0.5
        inSlope: 0
        outSlope: 0
        tangentMode: 136
      m_PreInfinity: 2
      m_PostInfinity: 2
      m_RotationOrder: 4
    attribute: localEulerAnglesBaked.z
    path: 
    classID: 224
    script: {fileID: 0}
  m_HasGenericRootTransform: 0
  m_HasMotionFloatCurves: 0
  m_GenerateMotionCurves: 0
  m_Events: []
